{
    "libz.tbd": 1,
    "SystemConfiguration.framework": 1,
    "CoreData.framework": 1,
    "AdSupport.framework": 1,
    "libz.dylib": 1,
    "libsqlite3.dylib": 1,
    "AudioToolbox.framework": 2,
    "QuartzCore.framework": 2,
    "libiconv.dylib": 1,
    "AVFoundation.framework": 1,
    "CoreVideo.framework": 1,
    "CoreImage.framework": 1
}