{
  "prepare_queue": {
    "installed": [],
    "uninstalled": []
  },
  "config_munge": {
    "files": {
      "config.xml": {
        "parents": {
          "/*": [
            {
              "xml": "<feature name=\"Device\"><param name=\"ios-package\" value=\"CDVDevice\" /></feature>",
              "count": 1
            },
            {
              "xml": "<feature name=\"FirebasePlugin\"><param name=\"ios-package\" value=\"FirebasePlugin\" /><param name=\"onload\" value=\"true\" /></feature>",
              "count": 1
            },
            {
              "xml": "<feature name=\"Flashlight\"><param name=\"ios-package\" value=\"Flashlight\" /></feature>",
              "count": 1
            },
            {
              "xml": "<feature name=\"UniversalAnalytics\"><param name=\"ios-package\" value=\"UniversalAnalyticsPlugin\" /></feature>",
              "count": 1
            },
            {
              "xml": "<feature name=\"SpinnerDialog\"><param name=\"ios-package\" value=\"CDVSpinnerDialog\" /></feature>",
              "count": 1
            },
            {
              "xml": "<feature name=\"SplashScreen\"><param name=\"ios-package\" value=\"CDVSplashScreen\" /><param name=\"onload\" value=\"true\" /></feature>",
              "count": 1
            },
            {
              "xml": "<feature name=\"StatusBar\"><param name=\"ios-package\" value=\"CDVStatusBar\" /><param name=\"onload\" value=\"true\" /></feature>",
              "count": 1
            },
            {
              "xml": "<preference name=\"StatusBarOverlaysWebView\" value=\"true\" />",
              "count": 1
            },
            {
              "xml": "<preference name=\"StatusBarStyle\" value=\"lightcontent\" />",
              "count": 1
            },
            {
              "xml": "<feature name=\"Vibration\"><param name=\"ios-package\" value=\"CDVVibration\" /></feature>",
              "count": 1
            },
            {
              "xml": "<feature name=\"Toast\"><param name=\"ios-package\" value=\"Toast\" /></feature>",
              "count": 1
            },
            {
              "xml": "<feature name=\"Keyboard\"><param name=\"ios-package\" onload=\"true\" value=\"IonicKeyboard\" /></feature>",
              "count": 1
            },
            {
              "xml": "<feature name=\"BarcodeScanner\"><param name=\"ios-package\" value=\"CDVBarcodeScanner\" /></feature>",
              "count": 1
            }
          ]
        }
      },
      "*/Entitlements-Debug.plist": {
        "parents": {
          "aps-environment": [
            {
              "xml": "<string>development</string>",
              "count": 1
            }
          ]
        }
      },
      "*/Entitlements-Release.plist": {
        "parents": {
          "aps-environment": [
            {
              "xml": "<string>production</string>",
              "count": 1
            }
          ]
        }
      },
      "*-Info.plist": {
        "parents": {
          "NSCameraUsageDescription": [
            {
              "xml": "<string> </string>",
              "count": 1
            }
          ]
        }
      }
    }
  },
  "installed_plugins": {
    "cordova-plugin-compat": {
      "PACKAGE_NAME": "com.eightfinite.battery.user"
    },
    "cordova-plugin-crosswalk-webview": {
      "PACKAGE_NAME": "com.eightfinite.battery.user"
    },
    "cordova-plugin-device": {
      "PACKAGE_NAME": "com.eightfinite.battery.user"
    },
    "cordova-plugin-firebase": {
      "PACKAGE_NAME": "com.eightfinite.battery.user"
    },
    "cordova-plugin-flashlight": {
      "PACKAGE_NAME": "com.eightfinite.battery.user"
    },
    "cordova-plugin-google-analytics": {
      "PACKAGE_NAME": "com.eightfinite.battery.user"
    },
    "cordova-plugin-spinner-dialog": {
      "PACKAGE_NAME": "com.eightfinite.battery.user"
    },
    "cordova-plugin-splashscreen": {
      "PACKAGE_NAME": "com.eightfinite.battery.user"
    },
    "cordova-plugin-statusbar": {
      "PACKAGE_NAME": "com.eightfinite.battery.user"
    },
    "cordova-plugin-vibration": {
      "PACKAGE_NAME": "com.eightfinite.battery.user"
    },
    "cordova-plugin-whitelist": {
      "PACKAGE_NAME": "com.eightfinite.battery.user"
    },
    "cordova-plugin-x-toast": {
      "PACKAGE_NAME": "com.eightfinite.battery.user"
    },
    "ionic-plugin-keyboard": {
      "PACKAGE_NAME": "com.eightfinite.battery.user"
    },
    "phonegap-plugin-barcodescanner": {
      "CAMERA_USAGE_DESCRIPTION": " ",
      "PACKAGE_NAME": "com.eightfinite.battery.user"
    }
  },
  "dependent_plugins": {},
  "modules": [
    {
      "id": "cordova-plugin-device.device",
      "file": "plugins/cordova-plugin-device/www/device.js",
      "pluginId": "cordova-plugin-device",
      "clobbers": [
        "device"
      ]
    },
    {
      "id": "cordova-plugin-firebase.FirebasePlugin",
      "file": "plugins/cordova-plugin-firebase/www/firebase.js",
      "pluginId": "cordova-plugin-firebase",
      "clobbers": [
        "FirebasePlugin"
      ]
    },
    {
      "id": "cordova-plugin-flashlight.Flashlight",
      "file": "plugins/cordova-plugin-flashlight/www/Flashlight.js",
      "pluginId": "cordova-plugin-flashlight",
      "clobbers": [
        "window.plugins.flashlight"
      ]
    },
    {
      "id": "cordova-plugin-google-analytics.UniversalAnalytics",
      "file": "plugins/cordova-plugin-google-analytics/www/analytics.js",
      "pluginId": "cordova-plugin-google-analytics",
      "clobbers": [
        "analytics",
        "ga"
      ]
    },
    {
      "id": "cordova-plugin-spinner-dialog.SpinnerDialog",
      "file": "plugins/cordova-plugin-spinner-dialog/www/spinner.js",
      "pluginId": "cordova-plugin-spinner-dialog",
      "merges": [
        "window.plugins.spinnerDialog"
      ]
    },
    {
      "id": "cordova-plugin-splashscreen.SplashScreen",
      "file": "plugins/cordova-plugin-splashscreen/www/splashscreen.js",
      "pluginId": "cordova-plugin-splashscreen",
      "clobbers": [
        "navigator.splashscreen"
      ]
    },
    {
      "id": "cordova-plugin-statusbar.statusbar",
      "file": "plugins/cordova-plugin-statusbar/www/statusbar.js",
      "pluginId": "cordova-plugin-statusbar",
      "clobbers": [
        "window.StatusBar"
      ]
    },
    {
      "id": "cordova-plugin-vibration.notification",
      "file": "plugins/cordova-plugin-vibration/www/vibration.js",
      "pluginId": "cordova-plugin-vibration",
      "merges": [
        "navigator.notification",
        "navigator"
      ]
    },
    {
      "id": "cordova-plugin-x-toast.Toast",
      "file": "plugins/cordova-plugin-x-toast/www/Toast.js",
      "pluginId": "cordova-plugin-x-toast",
      "clobbers": [
        "window.plugins.toast"
      ]
    },
    {
      "id": "cordova-plugin-x-toast.tests",
      "file": "plugins/cordova-plugin-x-toast/test/tests.js",
      "pluginId": "cordova-plugin-x-toast"
    },
    {
      "id": "ionic-plugin-keyboard.keyboard",
      "file": "plugins/ionic-plugin-keyboard/www/ios/keyboard.js",
      "pluginId": "ionic-plugin-keyboard",
      "clobbers": [
        "cordova.plugins.Keyboard"
      ],
      "runs": true
    },
    {
      "id": "phonegap-plugin-barcodescanner.BarcodeScanner",
      "file": "plugins/phonegap-plugin-barcodescanner/www/barcodescanner.js",
      "pluginId": "phonegap-plugin-barcodescanner",
      "clobbers": [
        "cordova.plugins.barcodeScanner"
      ]
    }
  ],
  "plugin_metadata": {
    "cordova-plugin-compat": "1.2.0",
    "cordova-plugin-crosswalk-webview": "2.4.0",
    "cordova-plugin-device": "1.1.7",
    "cordova-plugin-firebase": "0.1.25",
    "cordova-plugin-flashlight": "3.2.0",
    "cordova-plugin-google-analytics": "1.8.3",
    "cordova-plugin-spinner-dialog": "1.3.1",
    "cordova-plugin-splashscreen": "4.1.0",
    "cordova-plugin-statusbar": "2.4.1",
    "cordova-plugin-vibration": "2.1.6",
    "cordova-plugin-whitelist": "1.3.3",
    "cordova-plugin-x-toast": "2.6.0",
    "ionic-plugin-keyboard": "2.2.1",
    "phonegap-plugin-barcodescanner": "7.0.2"
  }
}