-- Merging decision tree log ---
manifest
ADDED from /Users/shri/Documents/Projects/Mark/BatteryRenting/renting/platforms/android/app/src/main/AndroidManifest.xml:2:1-47:12
INJECTED from /Users/shri/Documents/Projects/Mark/BatteryRenting/renting/platforms/android/app/src/main/AndroidManifest.xml:2:1-47:12
INJECTED from /Users/shri/Documents/Projects/Mark/BatteryRenting/renting/platforms/android/app/src/main/AndroidManifest.xml:2:1-47:12
INJECTED from /Users/shri/Documents/Projects/Mark/BatteryRenting/renting/platforms/android/app/src/main/AndroidManifest.xml:2:1-47:12
MERGED from [me.leolin:ShortcutBadger:1.1.4] /Users/shri/.gradle/caches/transforms-1/files-1.1/ShortcutBadger-1.1.4.aar/abbde684ffb01cee5be0b5692f7a50c8/AndroidManifest.xml:2:1-35:12
MERGED from [com.google.firebase:firebase-crash:11.8.0] /Users/shri/.gradle/caches/transforms-1/files-1.1/firebase-crash-11.8.0.aar/12733be7820ee415ec2e3dbe1587d264/AndroidManifest.xml:17:1-27:12
MERGED from [com.google.firebase:firebase-auth:11.8.0] /Users/shri/.gradle/caches/transforms-1/files-1.1/firebase-auth-11.8.0.aar/c02482b0cedbd22ba0171afb693af566/AndroidManifest.xml:17:1-32:12
MERGED from [org.xwalk:xwalk_core_library:23.53.589.4] /Users/shri/.gradle/caches/transforms-1/files-1.1/xwalk_core_library-23.53.589.4.aar/588aae8066c4ac16fd88249d79b0a343/AndroidManifest.xml:1:1-9:12
MERGED from [com.google.android.gms:play-services-tagmanager:11.8.0] /Users/shri/.gradle/caches/transforms-1/files-1.1/play-services-tagmanager-11.8.0.aar/483218f4fa283dbf5000a667d9cb8962/AndroidManifest.xml:17:1-22:12
MERGED from [com.google.firebase:firebase-messaging:11.8.0] /Users/shri/.gradle/caches/transforms-1/files-1.1/firebase-messaging-11.8.0.aar/30dfd140a86e37d411c1c890a46e8559/AndroidManifest.xml:17:1-37:12
MERGED from [com.google.firebase:firebase-config:11.8.0] /Users/shri/.gradle/caches/transforms-1/files-1.1/firebase-config-11.8.0.aar/a498a027543be08fe6302a6f873f592b/AndroidManifest.xml:17:1-24:12
MERGED from [com.google.android.gms:play-services-analytics:11.8.0] /Users/shri/.gradle/caches/transforms-1/files-1.1/play-services-analytics-11.8.0.aar/1d0b7bc6a51dfe35e069921e5c46d42d/AndroidManifest.xml:17:1-47:12
MERGED from [com.google.firebase:firebase-core:11.8.0] /Users/shri/.gradle/caches/transforms-1/files-1.1/firebase-core-11.8.0.aar/cd07b5d11504ae4272f26137363aefd1/AndroidManifest.xml:2:1-6:12
MERGED from [com.google.android.gms:play-services-tagmanager-api:11.8.0] /Users/shri/.gradle/caches/transforms-1/files-1.1/play-services-tagmanager-api-11.8.0.aar/382a689e005dfb1efb941367f14ca28a/AndroidManifest.xml:17:1-47:12
MERGED from [com.google.firebase:firebase-analytics:11.8.0] /Users/shri/.gradle/caches/transforms-1/files-1.1/firebase-analytics-11.8.0.aar/2b9e801f6be8be137b4669c3bd7eb002/AndroidManifest.xml:17:1-54:12
MERGED from [com.google.firebase:firebase-analytics-impl:11.8.0] /Users/shri/.gradle/caches/transforms-1/files-1.1/firebase-analytics-impl-11.8.0.aar/c71aa951e0b8bdff3321ea7dffb420ee/AndroidManifest.xml:17:1-40:12
MERGED from [com.google.firebase:firebase-iid:11.8.0] /Users/shri/.gradle/caches/transforms-1/files-1.1/firebase-iid-11.8.0.aar/388e770c7952ee37cb9aded38188d93f/AndroidManifest.xml:17:1-59:12
MERGED from [com.google.firebase:firebase-common:11.8.0] /Users/shri/.gradle/caches/transforms-1/files-1.1/firebase-common-11.8.0.aar/9d4a1f0405dff92ae8fe7d614d4a458d/AndroidManifest.xml:2:1-15:12
MERGED from [com.google.android.gms:play-services-tagmanager-v4-impl:11.8.0] /Users/shri/.gradle/caches/transforms-1/files-1.1/play-services-tagmanager-v4-impl-11.8.0.aar/009d967e502efc56c5f8c97618a78ae9/AndroidManifest.xml:17:1-24:12
MERGED from [com.google.android.gms:play-services-analytics-impl:11.8.0] /Users/shri/.gradle/caches/transforms-1/files-1.1/play-services-analytics-impl-11.8.0.aar/946bc0456a4b17771bac19028888f9e5/AndroidManifest.xml:17:1-31:12
MERGED from [com.google.android.gms:play-services-base:11.8.0] /Users/shri/.gradle/caches/transforms-1/files-1.1/play-services-base-11.8.0.aar/fc3a850c00ee598103dc1eadd5a91431/AndroidManifest.xml:17:1-29:12
MERGED from [com.google.android.gms:play-services-tasks:11.8.0] /Users/shri/.gradle/caches/transforms-1/files-1.1/play-services-tasks-11.8.0.aar/20f3ad62a804c8a9ad97f4249fd186de/AndroidManifest.xml:2:1-9:12
MERGED from [com.google.android.gms:play-services-basement:11.8.0] /Users/shri/.gradle/caches/transforms-1/files-1.1/play-services-basement-11.8.0.aar/5c87e1bb73fb9bfb3f77328dc39c677d/AndroidManifest.xml:17:1-28:12
MERGED from [com.android.support:support-v4:27.0.2] /Users/shri/.gradle/caches/transforms-1/files-1.1/support-v4-27.0.2.aar/c088e1da8867ad9298b398d26f54bb23/AndroidManifest.xml:17:1-22:12
MERGED from [:barcodescanner-release-2.1.5:] /Users/shri/.gradle/caches/transforms-1/files-1.1/barcodescanner-release-2.1.5.aar/f897be50df40e178d10b433e4d831d27/AndroidManifest.xml:2:1-14:12
MERGED from [:CordovaLib] /Users/shri/Documents/Projects/Mark/BatteryRenting/renting/platforms/android/CordovaLib/build/intermediates/manifests/full/debug/AndroidManifest.xml:20:1-27:12
MERGED from [com.google.firebase:firebase-crash-license:11.8.0] /Users/shri/.gradle/caches/transforms-1/files-1.1/firebase-crash-license-11.8.0.aar/48bbe91325161826539ebdd7811c950c/AndroidManifest.xml:2:1-6:12
MERGED from [com.google.firebase:firebase-auth-license:11.8.0] /Users/shri/.gradle/caches/transforms-1/files-1.1/firebase-auth-license-11.8.0.aar/ac20f1ff849ae142200b87809313db84/AndroidManifest.xml:2:1-6:12
MERGED from [com.android.support:support-media-compat:27.0.2] /Users/shri/.gradle/caches/transforms-1/files-1.1/support-media-compat-27.0.2.aar/38b512b6a0251f2694e9b0ead58a40b4/AndroidManifest.xml:17:1-22:12
MERGED from [com.android.support:support-fragment:27.0.2] /Users/shri/.gradle/caches/transforms-1/files-1.1/support-fragment-27.0.2.aar/0fd09c6088092d0255bf6cd6d0903e3e/AndroidManifest.xml:17:1-22:12
MERGED from [com.android.support:support-core-utils:27.0.2] /Users/shri/.gradle/caches/transforms-1/files-1.1/support-core-utils-27.0.2.aar/d2eca5b0d3a85d0560886fa2c4fd8794/AndroidManifest.xml:17:1-22:12
MERGED from [com.android.support:support-core-ui:27.0.2] /Users/shri/.gradle/caches/transforms-1/files-1.1/support-core-ui-27.0.2.aar/8f3ffac6383456cedd72dbc88f30b59d/AndroidManifest.xml:17:1-22:12
MERGED from [com.android.support:support-compat:27.0.2] /Users/shri/.gradle/caches/transforms-1/files-1.1/support-compat-27.0.2.aar/47041f06b1c429911c7c0df4089adeca/AndroidManifest.xml:17:1-22:12
MERGED from [com.google.android.gms:play-services-tagmanager-license:11.8.0] /Users/shri/.gradle/caches/transforms-1/files-1.1/play-services-tagmanager-license-11.8.0.aar/cd9debf19c4fb5c030eb1771700f8a3b/AndroidManifest.xml:2:1-6:12
MERGED from [com.google.firebase:firebase-messaging-license:11.8.0] /Users/shri/.gradle/caches/transforms-1/files-1.1/firebase-messaging-license-11.8.0.aar/995700dd9c3d978df5a0aad7bf00e804/AndroidManifest.xml:2:1-6:12
MERGED from [com.google.firebase:firebase-config-license:11.8.0] /Users/shri/.gradle/caches/transforms-1/files-1.1/firebase-config-license-11.8.0.aar/dba180e479b2d201dbe6314e6a8729e2/AndroidManifest.xml:2:1-6:12
MERGED from [com.google.android.gms:play-services-analytics-license:11.8.0] /Users/shri/.gradle/caches/transforms-1/files-1.1/play-services-analytics-license-11.8.0.aar/8b3ed95af215eaf3b69742a18ee88254/AndroidManifest.xml:2:1-6:12
MERGED from [com.google.android.gms:play-services-basement-license:11.8.0] /Users/shri/.gradle/caches/transforms-1/files-1.1/play-services-basement-license-11.8.0.aar/07473766cd73680557919f30329c8792/AndroidManifest.xml:2:1-6:12
MERGED from [com.google.firebase:firebase-iid-license:11.8.0] /Users/shri/.gradle/caches/transforms-1/files-1.1/firebase-iid-license-11.8.0.aar/d4b98c49a6332cec828e0725435da249/AndroidManifest.xml:2:1-6:12
MERGED from [com.google.firebase:firebase-common-license:11.8.0] /Users/shri/.gradle/caches/transforms-1/files-1.1/firebase-common-license-11.8.0.aar/d4f8d54c0437d458a27ff493015fef29/AndroidManifest.xml:2:1-6:12
MERGED from [com.google.firebase:firebase-analytics-license:11.8.0] /Users/shri/.gradle/caches/transforms-1/files-1.1/firebase-analytics-license-11.8.0.aar/f2d5f911d8ac14ac6e8d8f87cf06cab0/AndroidManifest.xml:2:1-6:12
MERGED from [com.google.android.gms:play-services-base-license:11.8.0] /Users/shri/.gradle/caches/transforms-1/files-1.1/play-services-base-license-11.8.0.aar/a3be8d17ce9d7f443fa40800b6b7dde3/AndroidManifest.xml:2:1-6:12
MERGED from [com.google.android.gms:play-services-tasks-license:11.8.0] /Users/shri/.gradle/caches/transforms-1/files-1.1/play-services-tasks-license-11.8.0.aar/64bf83d9e1dc1e4ebea82d07f3f60abb/AndroidManifest.xml:2:1-6:12
MERGED from [com.google.android.gms:play-services-analytics-impl-license:11.8.0] /Users/shri/.gradle/caches/transforms-1/files-1.1/play-services-analytics-impl-license-11.8.0.aar/915de42dbb282f6e9e81e376a6be5185/AndroidManifest.xml:2:1-6:12
MERGED from [com.google.android.gms:play-services-tagmanager-api-license:11.8.0] /Users/shri/.gradle/caches/transforms-1/files-1.1/play-services-tagmanager-api-license-11.8.0.aar/3b0b6a120eab76a3919e15ed437cb1d7/AndroidManifest.xml:2:1-6:12
MERGED from [com.google.android.gms:play-services-tagmanager-v4-impl-license:11.8.0] /Users/shri/.gradle/caches/transforms-1/files-1.1/play-services-tagmanager-v4-impl-license-11.8.0.aar/e78a586ad802cd1d5cced44dd64c916e/AndroidManifest.xml:2:1-6:12
MERGED from [com.google.firebase:firebase-analytics-impl-license:11.8.0] /Users/shri/.gradle/caches/transforms-1/files-1.1/firebase-analytics-impl-license-11.8.0.aar/f622f6b54d96af36cfb1b94304c64c02/AndroidManifest.xml:2:1-6:12
MERGED from [android.arch.lifecycle:runtime:1.0.3] /Users/shri/.gradle/caches/transforms-1/files-1.1/runtime-1.0.3.aar/6420535ca509c05220fdf5064fbc9e76/AndroidManifest.xml:17:1-24:12
INJECTED from /Users/shri/Documents/Projects/Mark/BatteryRenting/renting/platforms/android/app/src/main/AndroidManifest.xml:2:1-47:12
INJECTED from /Users/shri/Documents/Projects/Mark/BatteryRenting/renting/platforms/android/app/src/main/AndroidManifest.xml:2:1-47:12
INJECTED from /Users/shri/Documents/Projects/Mark/BatteryRenting/renting/platforms/android/app/src/main/AndroidManifest.xml:2:1-47:12
	package
		ADDED from /Users/shri/Documents/Projects/Mark/BatteryRenting/renting/platforms/android/app/src/main/AndroidManifest.xml:2:98-136
		INJECTED from /Users/shri/Documents/Projects/Mark/BatteryRenting/renting/platforms/android/app/src/main/AndroidManifest.xml
		INJECTED from /Users/shri/Documents/Projects/Mark/BatteryRenting/renting/platforms/android/app/src/main/AndroidManifest.xml
	android:versionName
		ADDED from /Users/shri/Documents/Projects/Mark/BatteryRenting/renting/platforms/android/app/src/main/AndroidManifest.xml:2:70-97
		INJECTED from /Users/shri/Documents/Projects/Mark/BatteryRenting/renting/platforms/android/app/src/main/AndroidManifest.xml
		INJECTED from /Users/shri/Documents/Projects/Mark/BatteryRenting/renting/platforms/android/app/src/main/AndroidManifest.xml
	android:hardwareAccelerated
		ADDED from /Users/shri/Documents/Projects/Mark/BatteryRenting/renting/platforms/android/app/src/main/AndroidManifest.xml:2:11-45
	xmlns:android
		ADDED from /Users/shri/Documents/Projects/Mark/BatteryRenting/renting/platforms/android/app/src/main/AndroidManifest.xml:2:137-195
	android:versionCode
		ADDED from /Users/shri/Documents/Projects/Mark/BatteryRenting/renting/platforms/android/app/src/main/AndroidManifest.xml:2:46-69
		INJECTED from /Users/shri/Documents/Projects/Mark/BatteryRenting/renting/platforms/android/app/src/main/AndroidManifest.xml
		INJECTED from /Users/shri/Documents/Projects/Mark/BatteryRenting/renting/platforms/android/app/src/main/AndroidManifest.xml
supports-screens
ADDED from /Users/shri/Documents/Projects/Mark/BatteryRenting/renting/platforms/android/app/src/main/AndroidManifest.xml:3:5-191
	android:largeScreens
		ADDED from /Users/shri/Documents/Projects/Mark/BatteryRenting/renting/platforms/android/app/src/main/AndroidManifest.xml:3:49-76
	android:smallScreens
		ADDED from /Users/shri/Documents/Projects/Mark/BatteryRenting/renting/platforms/android/app/src/main/AndroidManifest.xml:3:132-159
	android:normalScreens
		ADDED from /Users/shri/Documents/Projects/Mark/BatteryRenting/renting/platforms/android/app/src/main/AndroidManifest.xml:3:77-105
	android:xlargeScreens
		ADDED from /Users/shri/Documents/Projects/Mark/BatteryRenting/renting/platforms/android/app/src/main/AndroidManifest.xml:3:160-188
	android:resizeable
		ADDED from /Users/shri/Documents/Projects/Mark/BatteryRenting/renting/platforms/android/app/src/main/AndroidManifest.xml:3:106-131
	android:anyDensity
		ADDED from /Users/shri/Documents/Projects/Mark/BatteryRenting/renting/platforms/android/app/src/main/AndroidManifest.xml:3:23-48
uses-permission#android.permission.INTERNET
ADDED from /Users/shri/Documents/Projects/Mark/BatteryRenting/renting/platforms/android/app/src/main/AndroidManifest.xml:4:5-67
MERGED from [com.google.firebase:firebase-crash:11.8.0] /Users/shri/.gradle/caches/transforms-1/files-1.1/firebase-crash-11.8.0.aar/12733be7820ee415ec2e3dbe1587d264/AndroidManifest.xml:22:5-67
MERGED from [com.google.firebase:firebase-crash:11.8.0] /Users/shri/.gradle/caches/transforms-1/files-1.1/firebase-crash-11.8.0.aar/12733be7820ee415ec2e3dbe1587d264/AndroidManifest.xml:22:5-67
MERGED from [com.google.android.gms:play-services-analytics:11.8.0] /Users/shri/.gradle/caches/transforms-1/files-1.1/play-services-analytics-11.8.0.aar/1d0b7bc6a51dfe35e069921e5c46d42d/AndroidManifest.xml:23:5-67
MERGED from [com.google.android.gms:play-services-analytics:11.8.0] /Users/shri/.gradle/caches/transforms-1/files-1.1/play-services-analytics-11.8.0.aar/1d0b7bc6a51dfe35e069921e5c46d42d/AndroidManifest.xml:23:5-67
MERGED from [com.google.android.gms:play-services-tagmanager-api:11.8.0] /Users/shri/.gradle/caches/transforms-1/files-1.1/play-services-tagmanager-api-11.8.0.aar/382a689e005dfb1efb941367f14ca28a/AndroidManifest.xml:23:5-67
MERGED from [com.google.android.gms:play-services-tagmanager-api:11.8.0] /Users/shri/.gradle/caches/transforms-1/files-1.1/play-services-tagmanager-api-11.8.0.aar/382a689e005dfb1efb941367f14ca28a/AndroidManifest.xml:23:5-67
MERGED from [com.google.firebase:firebase-analytics:11.8.0] /Users/shri/.gradle/caches/transforms-1/files-1.1/firebase-analytics-11.8.0.aar/2b9e801f6be8be137b4669c3bd7eb002/AndroidManifest.xml:23:5-67
MERGED from [com.google.firebase:firebase-analytics:11.8.0] /Users/shri/.gradle/caches/transforms-1/files-1.1/firebase-analytics-11.8.0.aar/2b9e801f6be8be137b4669c3bd7eb002/AndroidManifest.xml:23:5-67
MERGED from [com.google.firebase:firebase-analytics-impl:11.8.0] /Users/shri/.gradle/caches/transforms-1/files-1.1/firebase-analytics-impl-11.8.0.aar/c71aa951e0b8bdff3321ea7dffb420ee/AndroidManifest.xml:23:5-67
MERGED from [com.google.firebase:firebase-analytics-impl:11.8.0] /Users/shri/.gradle/caches/transforms-1/files-1.1/firebase-analytics-impl-11.8.0.aar/c71aa951e0b8bdff3321ea7dffb420ee/AndroidManifest.xml:23:5-67
MERGED from [com.google.firebase:firebase-iid:11.8.0] /Users/shri/.gradle/caches/transforms-1/files-1.1/firebase-iid-11.8.0.aar/388e770c7952ee37cb9aded38188d93f/AndroidManifest.xml:23:5-67
MERGED from [com.google.firebase:firebase-iid:11.8.0] /Users/shri/.gradle/caches/transforms-1/files-1.1/firebase-iid-11.8.0.aar/388e770c7952ee37cb9aded38188d93f/AndroidManifest.xml:23:5-67
MERGED from [com.google.android.gms:play-services-analytics-impl:11.8.0] /Users/shri/.gradle/caches/transforms-1/files-1.1/play-services-analytics-impl-11.8.0.aar/946bc0456a4b17771bac19028888f9e5/AndroidManifest.xml:23:5-67
MERGED from [com.google.android.gms:play-services-analytics-impl:11.8.0] /Users/shri/.gradle/caches/transforms-1/files-1.1/play-services-analytics-impl-11.8.0.aar/946bc0456a4b17771bac19028888f9e5/AndroidManifest.xml:23:5-67
	android:name
		ADDED from /Users/shri/Documents/Projects/Mark/BatteryRenting/renting/platforms/android/app/src/main/AndroidManifest.xml:4:22-64
application
ADDED from /Users/shri/Documents/Projects/Mark/BatteryRenting/renting/platforms/android/app/src/main/AndroidManifest.xml:5:5-38:19
MERGED from [com.google.firebase:firebase-crash:11.8.0] /Users/shri/.gradle/caches/transforms-1/files-1.1/firebase-crash-11.8.0.aar/12733be7820ee415ec2e3dbe1587d264/AndroidManifest.xml:24:5-25:19
MERGED from [com.google.firebase:firebase-crash:11.8.0] /Users/shri/.gradle/caches/transforms-1/files-1.1/firebase-crash-11.8.0.aar/12733be7820ee415ec2e3dbe1587d264/AndroidManifest.xml:24:5-25:19
MERGED from [com.google.firebase:firebase-auth:11.8.0] /Users/shri/.gradle/caches/transforms-1/files-1.1/firebase-auth-11.8.0.aar/c02482b0cedbd22ba0171afb693af566/AndroidManifest.xml:22:5-30:19
MERGED from [com.google.firebase:firebase-auth:11.8.0] /Users/shri/.gradle/caches/transforms-1/files-1.1/firebase-auth-11.8.0.aar/c02482b0cedbd22ba0171afb693af566/AndroidManifest.xml:22:5-30:19
MERGED from [com.google.firebase:firebase-messaging:11.8.0] /Users/shri/.gradle/caches/transforms-1/files-1.1/firebase-messaging-11.8.0.aar/30dfd140a86e37d411c1c890a46e8559/AndroidManifest.xml:22:5-35:19
MERGED from [com.google.firebase:firebase-messaging:11.8.0] /Users/shri/.gradle/caches/transforms-1/files-1.1/firebase-messaging-11.8.0.aar/30dfd140a86e37d411c1c890a46e8559/AndroidManifest.xml:22:5-35:19
MERGED from [com.google.firebase:firebase-config:11.8.0] /Users/shri/.gradle/caches/transforms-1/files-1.1/firebase-config-11.8.0.aar/a498a027543be08fe6302a6f873f592b/AndroidManifest.xml:22:5-20
MERGED from [com.google.firebase:firebase-config:11.8.0] /Users/shri/.gradle/caches/transforms-1/files-1.1/firebase-config-11.8.0.aar/a498a027543be08fe6302a6f873f592b/AndroidManifest.xml:22:5-20
MERGED from [com.google.android.gms:play-services-analytics:11.8.0] /Users/shri/.gradle/caches/transforms-1/files-1.1/play-services-analytics-11.8.0.aar/1d0b7bc6a51dfe35e069921e5c46d42d/AndroidManifest.xml:29:5-45:19
MERGED from [com.google.android.gms:play-services-analytics:11.8.0] /Users/shri/.gradle/caches/transforms-1/files-1.1/play-services-analytics-11.8.0.aar/1d0b7bc6a51dfe35e069921e5c46d42d/AndroidManifest.xml:29:5-45:19
MERGED from [com.google.firebase:firebase-core:11.8.0] /Users/shri/.gradle/caches/transforms-1/files-1.1/firebase-core-11.8.0.aar/cd07b5d11504ae4272f26137363aefd1/AndroidManifest.xml:5:5-20
MERGED from [com.google.firebase:firebase-core:11.8.0] /Users/shri/.gradle/caches/transforms-1/files-1.1/firebase-core-11.8.0.aar/cd07b5d11504ae4272f26137363aefd1/AndroidManifest.xml:5:5-20
MERGED from [com.google.android.gms:play-services-tagmanager-api:11.8.0] /Users/shri/.gradle/caches/transforms-1/files-1.1/play-services-tagmanager-api-11.8.0.aar/382a689e005dfb1efb941367f14ca28a/AndroidManifest.xml:26:5-45:19
MERGED from [com.google.android.gms:play-services-tagmanager-api:11.8.0] /Users/shri/.gradle/caches/transforms-1/files-1.1/play-services-tagmanager-api-11.8.0.aar/382a689e005dfb1efb941367f14ca28a/AndroidManifest.xml:26:5-45:19
MERGED from [com.google.firebase:firebase-analytics:11.8.0] /Users/shri/.gradle/caches/transforms-1/files-1.1/firebase-analytics-11.8.0.aar/2b9e801f6be8be137b4669c3bd7eb002/AndroidManifest.xml:27:5-52:19
MERGED from [com.google.firebase:firebase-analytics:11.8.0] /Users/shri/.gradle/caches/transforms-1/files-1.1/firebase-analytics-11.8.0.aar/2b9e801f6be8be137b4669c3bd7eb002/AndroidManifest.xml:27:5-52:19
MERGED from [com.google.firebase:firebase-analytics-impl:11.8.0] /Users/shri/.gradle/caches/transforms-1/files-1.1/firebase-analytics-impl-11.8.0.aar/c71aa951e0b8bdff3321ea7dffb420ee/AndroidManifest.xml:27:5-38:19
MERGED from [com.google.firebase:firebase-analytics-impl:11.8.0] /Users/shri/.gradle/caches/transforms-1/files-1.1/firebase-analytics-impl-11.8.0.aar/c71aa951e0b8bdff3321ea7dffb420ee/AndroidManifest.xml:27:5-38:19
MERGED from [com.google.firebase:firebase-iid:11.8.0] /Users/shri/.gradle/caches/transforms-1/files-1.1/firebase-iid-11.8.0.aar/388e770c7952ee37cb9aded38188d93f/AndroidManifest.xml:34:5-57:19
MERGED from [com.google.firebase:firebase-iid:11.8.0] /Users/shri/.gradle/caches/transforms-1/files-1.1/firebase-iid-11.8.0.aar/388e770c7952ee37cb9aded38188d93f/AndroidManifest.xml:34:5-57:19
MERGED from [com.google.firebase:firebase-common:11.8.0] /Users/shri/.gradle/caches/transforms-1/files-1.1/firebase-common-11.8.0.aar/9d4a1f0405dff92ae8fe7d614d4a458d/AndroidManifest.xml:7:5-13:19
MERGED from [com.google.firebase:firebase-common:11.8.0] /Users/shri/.gradle/caches/transforms-1/files-1.1/firebase-common-11.8.0.aar/9d4a1f0405dff92ae8fe7d614d4a458d/AndroidManifest.xml:7:5-13:19
MERGED from [com.google.android.gms:play-services-tagmanager-v4-impl:11.8.0] /Users/shri/.gradle/caches/transforms-1/files-1.1/play-services-tagmanager-v4-impl-11.8.0.aar/009d967e502efc56c5f8c97618a78ae9/AndroidManifest.xml:22:5-20
MERGED from [com.google.android.gms:play-services-tagmanager-v4-impl:11.8.0] /Users/shri/.gradle/caches/transforms-1/files-1.1/play-services-tagmanager-v4-impl-11.8.0.aar/009d967e502efc56c5f8c97618a78ae9/AndroidManifest.xml:22:5-20
MERGED from [com.google.android.gms:play-services-analytics-impl:11.8.0] /Users/shri/.gradle/caches/transforms-1/files-1.1/play-services-analytics-impl-11.8.0.aar/946bc0456a4b17771bac19028888f9e5/AndroidManifest.xml:29:5-20
MERGED from [com.google.android.gms:play-services-analytics-impl:11.8.0] /Users/shri/.gradle/caches/transforms-1/files-1.1/play-services-analytics-impl-11.8.0.aar/946bc0456a4b17771bac19028888f9e5/AndroidManifest.xml:29:5-20
MERGED from [com.google.android.gms:play-services-base:11.8.0] /Users/shri/.gradle/caches/transforms-1/files-1.1/play-services-base-11.8.0.aar/fc3a850c00ee598103dc1eadd5a91431/AndroidManifest.xml:22:5-27:19
MERGED from [com.google.android.gms:play-services-base:11.8.0] /Users/shri/.gradle/caches/transforms-1/files-1.1/play-services-base-11.8.0.aar/fc3a850c00ee598103dc1eadd5a91431/AndroidManifest.xml:22:5-27:19
MERGED from [com.google.android.gms:play-services-tasks:11.8.0] /Users/shri/.gradle/caches/transforms-1/files-1.1/play-services-tasks-11.8.0.aar/20f3ad62a804c8a9ad97f4249fd186de/AndroidManifest.xml:7:5-20
MERGED from [com.google.android.gms:play-services-tasks:11.8.0] /Users/shri/.gradle/caches/transforms-1/files-1.1/play-services-tasks-11.8.0.aar/20f3ad62a804c8a9ad97f4249fd186de/AndroidManifest.xml:7:5-20
MERGED from [com.google.android.gms:play-services-basement:11.8.0] /Users/shri/.gradle/caches/transforms-1/files-1.1/play-services-basement-11.8.0.aar/5c87e1bb73fb9bfb3f77328dc39c677d/AndroidManifest.xml:22:5-26:19
MERGED from [com.google.android.gms:play-services-basement:11.8.0] /Users/shri/.gradle/caches/transforms-1/files-1.1/play-services-basement-11.8.0.aar/5c87e1bb73fb9bfb3f77328dc39c677d/AndroidManifest.xml:22:5-26:19
MERGED from [:barcodescanner-release-2.1.5:] /Users/shri/.gradle/caches/transforms-1/files-1.1/barcodescanner-release-2.1.5.aar/f897be50df40e178d10b433e4d831d27/AndroidManifest.xml:11:5-12:19
MERGED from [:barcodescanner-release-2.1.5:] /Users/shri/.gradle/caches/transforms-1/files-1.1/barcodescanner-release-2.1.5.aar/f897be50df40e178d10b433e4d831d27/AndroidManifest.xml:11:5-12:19
MERGED from [com.google.firebase:firebase-crash-license:11.8.0] /Users/shri/.gradle/caches/transforms-1/files-1.1/firebase-crash-license-11.8.0.aar/48bbe91325161826539ebdd7811c950c/AndroidManifest.xml:5:5-20
MERGED from [com.google.firebase:firebase-crash-license:11.8.0] /Users/shri/.gradle/caches/transforms-1/files-1.1/firebase-crash-license-11.8.0.aar/48bbe91325161826539ebdd7811c950c/AndroidManifest.xml:5:5-20
MERGED from [com.google.firebase:firebase-auth-license:11.8.0] /Users/shri/.gradle/caches/transforms-1/files-1.1/firebase-auth-license-11.8.0.aar/ac20f1ff849ae142200b87809313db84/AndroidManifest.xml:5:5-20
MERGED from [com.google.firebase:firebase-auth-license:11.8.0] /Users/shri/.gradle/caches/transforms-1/files-1.1/firebase-auth-license-11.8.0.aar/ac20f1ff849ae142200b87809313db84/AndroidManifest.xml:5:5-20
MERGED from [com.google.android.gms:play-services-tagmanager-license:11.8.0] /Users/shri/.gradle/caches/transforms-1/files-1.1/play-services-tagmanager-license-11.8.0.aar/cd9debf19c4fb5c030eb1771700f8a3b/AndroidManifest.xml:5:5-20
MERGED from [com.google.android.gms:play-services-tagmanager-license:11.8.0] /Users/shri/.gradle/caches/transforms-1/files-1.1/play-services-tagmanager-license-11.8.0.aar/cd9debf19c4fb5c030eb1771700f8a3b/AndroidManifest.xml:5:5-20
MERGED from [com.google.firebase:firebase-messaging-license:11.8.0] /Users/shri/.gradle/caches/transforms-1/files-1.1/firebase-messaging-license-11.8.0.aar/995700dd9c3d978df5a0aad7bf00e804/AndroidManifest.xml:5:5-20
MERGED from [com.google.firebase:firebase-messaging-license:11.8.0] /Users/shri/.gradle/caches/transforms-1/files-1.1/firebase-messaging-license-11.8.0.aar/995700dd9c3d978df5a0aad7bf00e804/AndroidManifest.xml:5:5-20
MERGED from [com.google.firebase:firebase-config-license:11.8.0] /Users/shri/.gradle/caches/transforms-1/files-1.1/firebase-config-license-11.8.0.aar/dba180e479b2d201dbe6314e6a8729e2/AndroidManifest.xml:5:5-20
MERGED from [com.google.firebase:firebase-config-license:11.8.0] /Users/shri/.gradle/caches/transforms-1/files-1.1/firebase-config-license-11.8.0.aar/dba180e479b2d201dbe6314e6a8729e2/AndroidManifest.xml:5:5-20
MERGED from [com.google.android.gms:play-services-analytics-license:11.8.0] /Users/shri/.gradle/caches/transforms-1/files-1.1/play-services-analytics-license-11.8.0.aar/8b3ed95af215eaf3b69742a18ee88254/AndroidManifest.xml:5:5-20
MERGED from [com.google.android.gms:play-services-analytics-license:11.8.0] /Users/shri/.gradle/caches/transforms-1/files-1.1/play-services-analytics-license-11.8.0.aar/8b3ed95af215eaf3b69742a18ee88254/AndroidManifest.xml:5:5-20
MERGED from [com.google.android.gms:play-services-basement-license:11.8.0] /Users/shri/.gradle/caches/transforms-1/files-1.1/play-services-basement-license-11.8.0.aar/07473766cd73680557919f30329c8792/AndroidManifest.xml:5:5-20
MERGED from [com.google.android.gms:play-services-basement-license:11.8.0] /Users/shri/.gradle/caches/transforms-1/files-1.1/play-services-basement-license-11.8.0.aar/07473766cd73680557919f30329c8792/AndroidManifest.xml:5:5-20
MERGED from [com.google.firebase:firebase-iid-license:11.8.0] /Users/shri/.gradle/caches/transforms-1/files-1.1/firebase-iid-license-11.8.0.aar/d4b98c49a6332cec828e0725435da249/AndroidManifest.xml:5:5-20
MERGED from [com.google.firebase:firebase-iid-license:11.8.0] /Users/shri/.gradle/caches/transforms-1/files-1.1/firebase-iid-license-11.8.0.aar/d4b98c49a6332cec828e0725435da249/AndroidManifest.xml:5:5-20
MERGED from [com.google.firebase:firebase-common-license:11.8.0] /Users/shri/.gradle/caches/transforms-1/files-1.1/firebase-common-license-11.8.0.aar/d4f8d54c0437d458a27ff493015fef29/AndroidManifest.xml:5:5-20
MERGED from [com.google.firebase:firebase-common-license:11.8.0] /Users/shri/.gradle/caches/transforms-1/files-1.1/firebase-common-license-11.8.0.aar/d4f8d54c0437d458a27ff493015fef29/AndroidManifest.xml:5:5-20
MERGED from [com.google.firebase:firebase-analytics-license:11.8.0] /Users/shri/.gradle/caches/transforms-1/files-1.1/firebase-analytics-license-11.8.0.aar/f2d5f911d8ac14ac6e8d8f87cf06cab0/AndroidManifest.xml:5:5-20
MERGED from [com.google.firebase:firebase-analytics-license:11.8.0] /Users/shri/.gradle/caches/transforms-1/files-1.1/firebase-analytics-license-11.8.0.aar/f2d5f911d8ac14ac6e8d8f87cf06cab0/AndroidManifest.xml:5:5-20
MERGED from [com.google.android.gms:play-services-base-license:11.8.0] /Users/shri/.gradle/caches/transforms-1/files-1.1/play-services-base-license-11.8.0.aar/a3be8d17ce9d7f443fa40800b6b7dde3/AndroidManifest.xml:5:5-20
MERGED from [com.google.android.gms:play-services-base-license:11.8.0] /Users/shri/.gradle/caches/transforms-1/files-1.1/play-services-base-license-11.8.0.aar/a3be8d17ce9d7f443fa40800b6b7dde3/AndroidManifest.xml:5:5-20
MERGED from [com.google.android.gms:play-services-tasks-license:11.8.0] /Users/shri/.gradle/caches/transforms-1/files-1.1/play-services-tasks-license-11.8.0.aar/64bf83d9e1dc1e4ebea82d07f3f60abb/AndroidManifest.xml:5:5-20
MERGED from [com.google.android.gms:play-services-tasks-license:11.8.0] /Users/shri/.gradle/caches/transforms-1/files-1.1/play-services-tasks-license-11.8.0.aar/64bf83d9e1dc1e4ebea82d07f3f60abb/AndroidManifest.xml:5:5-20
MERGED from [com.google.android.gms:play-services-analytics-impl-license:11.8.0] /Users/shri/.gradle/caches/transforms-1/files-1.1/play-services-analytics-impl-license-11.8.0.aar/915de42dbb282f6e9e81e376a6be5185/AndroidManifest.xml:5:5-20
MERGED from [com.google.android.gms:play-services-analytics-impl-license:11.8.0] /Users/shri/.gradle/caches/transforms-1/files-1.1/play-services-analytics-impl-license-11.8.0.aar/915de42dbb282f6e9e81e376a6be5185/AndroidManifest.xml:5:5-20
MERGED from [com.google.android.gms:play-services-tagmanager-api-license:11.8.0] /Users/shri/.gradle/caches/transforms-1/files-1.1/play-services-tagmanager-api-license-11.8.0.aar/3b0b6a120eab76a3919e15ed437cb1d7/AndroidManifest.xml:5:5-20
MERGED from [com.google.android.gms:play-services-tagmanager-api-license:11.8.0] /Users/shri/.gradle/caches/transforms-1/files-1.1/play-services-tagmanager-api-license-11.8.0.aar/3b0b6a120eab76a3919e15ed437cb1d7/AndroidManifest.xml:5:5-20
MERGED from [com.google.android.gms:play-services-tagmanager-v4-impl-license:11.8.0] /Users/shri/.gradle/caches/transforms-1/files-1.1/play-services-tagmanager-v4-impl-license-11.8.0.aar/e78a586ad802cd1d5cced44dd64c916e/AndroidManifest.xml:5:5-20
MERGED from [com.google.android.gms:play-services-tagmanager-v4-impl-license:11.8.0] /Users/shri/.gradle/caches/transforms-1/files-1.1/play-services-tagmanager-v4-impl-license-11.8.0.aar/e78a586ad802cd1d5cced44dd64c916e/AndroidManifest.xml:5:5-20
MERGED from [com.google.firebase:firebase-analytics-impl-license:11.8.0] /Users/shri/.gradle/caches/transforms-1/files-1.1/firebase-analytics-impl-license-11.8.0.aar/f622f6b54d96af36cfb1b94304c64c02/AndroidManifest.xml:5:5-20
MERGED from [com.google.firebase:firebase-analytics-impl-license:11.8.0] /Users/shri/.gradle/caches/transforms-1/files-1.1/firebase-analytics-impl-license-11.8.0.aar/f622f6b54d96af36cfb1b94304c64c02/AndroidManifest.xml:5:5-20
	android:supportsRtl
		ADDED from /Users/shri/Documents/Projects/Mark/BatteryRenting/renting/platforms/android/app/src/main/AndroidManifest.xml:5:114-140
	android:label
		ADDED from /Users/shri/Documents/Projects/Mark/BatteryRenting/renting/platforms/android/app/src/main/AndroidManifest.xml:5:81-113
	android:hardwareAccelerated
		ADDED from /Users/shri/Documents/Projects/Mark/BatteryRenting/renting/platforms/android/app/src/main/AndroidManifest.xml:5:18-52
	android:icon
		ADDED from /Users/shri/Documents/Projects/Mark/BatteryRenting/renting/platforms/android/app/src/main/AndroidManifest.xml:5:53-80
activity#com.eightfinite.battery.user.MainActivity
ADDED from /Users/shri/Documents/Projects/Mark/BatteryRenting/renting/platforms/android/app/src/main/AndroidManifest.xml:6:9-11:20
	android:label
		ADDED from /Users/shri/Documents/Projects/Mark/BatteryRenting/renting/platforms/android/app/src/main/AndroidManifest.xml:6:97-134
	android:launchMode
		ADDED from /Users/shri/Documents/Projects/Mark/BatteryRenting/renting/platforms/android/app/src/main/AndroidManifest.xml:6:135-165
	android:windowSoftInputMode
		ADDED from /Users/shri/Documents/Projects/Mark/BatteryRenting/renting/platforms/android/app/src/main/AndroidManifest.xml:6:257-299
	android:configChanges
		ADDED from /Users/shri/Documents/Projects/Mark/BatteryRenting/renting/platforms/android/app/src/main/AndroidManifest.xml:6:19-96
	android:theme
		ADDED from /Users/shri/Documents/Projects/Mark/BatteryRenting/renting/platforms/android/app/src/main/AndroidManifest.xml:6:194-256
	android:name
		ADDED from /Users/shri/Documents/Projects/Mark/BatteryRenting/renting/platforms/android/app/src/main/AndroidManifest.xml:6:166-193
intent-filter#android.intent.action.MAIN+android.intent.category.LAUNCHER
ADDED from /Users/shri/Documents/Projects/Mark/BatteryRenting/renting/platforms/android/app/src/main/AndroidManifest.xml:7:13-10:29
	android:label
		ADDED from /Users/shri/Documents/Projects/Mark/BatteryRenting/renting/platforms/android/app/src/main/AndroidManifest.xml:7:28-65
action#android.intent.action.MAIN
ADDED from /Users/shri/Documents/Projects/Mark/BatteryRenting/renting/platforms/android/app/src/main/AndroidManifest.xml:8:17-69
	android:name
		ADDED from /Users/shri/Documents/Projects/Mark/BatteryRenting/renting/platforms/android/app/src/main/AndroidManifest.xml:8:25-66
category#android.intent.category.LAUNCHER
ADDED from /Users/shri/Documents/Projects/Mark/BatteryRenting/renting/platforms/android/app/src/main/AndroidManifest.xml:9:17-77
	android:name
		ADDED from /Users/shri/Documents/Projects/Mark/BatteryRenting/renting/platforms/android/app/src/main/AndroidManifest.xml:9:27-74
service#com.google.android.gms.measurement.AppMeasurementService
ADDED from /Users/shri/Documents/Projects/Mark/BatteryRenting/renting/platforms/android/app/src/main/AndroidManifest.xml:12:9-140
MERGED from [com.google.firebase:firebase-analytics:11.8.0] /Users/shri/.gradle/caches/transforms-1/files-1.1/firebase-analytics-11.8.0.aar/2b9e801f6be8be137b4669c3bd7eb002/AndroidManifest.xml:43:9-46:40
MERGED from [com.google.firebase:firebase-analytics:11.8.0] /Users/shri/.gradle/caches/transforms-1/files-1.1/firebase-analytics-11.8.0.aar/2b9e801f6be8be137b4669c3bd7eb002/AndroidManifest.xml:43:9-46:40
MERGED from [com.google.firebase:firebase-analytics-impl:11.8.0] /Users/shri/.gradle/caches/transforms-1/files-1.1/firebase-analytics-impl-11.8.0.aar/c71aa951e0b8bdff3321ea7dffb420ee/AndroidManifest.xml:34:9-37:40
MERGED from [com.google.firebase:firebase-analytics-impl:11.8.0] /Users/shri/.gradle/caches/transforms-1/files-1.1/firebase-analytics-impl-11.8.0.aar/c71aa951e0b8bdff3321ea7dffb420ee/AndroidManifest.xml:34:9-37:40
	android:enabled
		ADDED from /Users/shri/Documents/Projects/Mark/BatteryRenting/renting/platforms/android/app/src/main/AndroidManifest.xml:12:18-40
	android:exported
		ADDED from /Users/shri/Documents/Projects/Mark/BatteryRenting/renting/platforms/android/app/src/main/AndroidManifest.xml:12:41-65
	android:name
		ADDED from /Users/shri/Documents/Projects/Mark/BatteryRenting/renting/platforms/android/app/src/main/AndroidManifest.xml:12:66-137
service#org.apache.cordova.firebase.FirebasePluginMessagingService
ADDED from /Users/shri/Documents/Projects/Mark/BatteryRenting/renting/platforms/android/app/src/main/AndroidManifest.xml:13:9-17:19
	android:name
		ADDED from /Users/shri/Documents/Projects/Mark/BatteryRenting/renting/platforms/android/app/src/main/AndroidManifest.xml:13:18-91
intent-filter#com.google.firebase.MESSAGING_EVENT
ADDED from /Users/shri/Documents/Projects/Mark/BatteryRenting/renting/platforms/android/app/src/main/AndroidManifest.xml:14:13-16:29
action#com.google.firebase.MESSAGING_EVENT
ADDED from /Users/shri/Documents/Projects/Mark/BatteryRenting/renting/platforms/android/app/src/main/AndroidManifest.xml:15:17-78
	android:name
		ADDED from /Users/shri/Documents/Projects/Mark/BatteryRenting/renting/platforms/android/app/src/main/AndroidManifest.xml:15:25-75
service#org.apache.cordova.firebase.FirebasePluginInstanceIDService
ADDED from /Users/shri/Documents/Projects/Mark/BatteryRenting/renting/platforms/android/app/src/main/AndroidManifest.xml:18:9-22:19
	android:name
		ADDED from /Users/shri/Documents/Projects/Mark/BatteryRenting/renting/platforms/android/app/src/main/AndroidManifest.xml:18:18-92
intent-filter#com.google.firebase.INSTANCE_ID_EVENT
ADDED from /Users/shri/Documents/Projects/Mark/BatteryRenting/renting/platforms/android/app/src/main/AndroidManifest.xml:19:13-21:29
action#com.google.firebase.INSTANCE_ID_EVENT
ADDED from /Users/shri/Documents/Projects/Mark/BatteryRenting/renting/platforms/android/app/src/main/AndroidManifest.xml:20:17-80
	android:name
		ADDED from /Users/shri/Documents/Projects/Mark/BatteryRenting/renting/platforms/android/app/src/main/AndroidManifest.xml:20:25-77
receiver#org.apache.cordova.firebase.OnNotificationOpenReceiver
ADDED from /Users/shri/Documents/Projects/Mark/BatteryRenting/renting/platforms/android/app/src/main/AndroidManifest.xml:23:9-91
	android:name
		ADDED from /Users/shri/Documents/Projects/Mark/BatteryRenting/renting/platforms/android/app/src/main/AndroidManifest.xml:23:19-88
receiver#com.google.android.gms.analytics.AnalyticsReceiver
ADDED from /Users/shri/Documents/Projects/Mark/BatteryRenting/renting/platforms/android/app/src/main/AndroidManifest.xml:24:9-28:20
MERGED from [com.google.android.gms:play-services-analytics:11.8.0] /Users/shri/.gradle/caches/transforms-1/files-1.1/play-services-analytics-11.8.0.aar/1d0b7bc6a51dfe35e069921e5c46d42d/AndroidManifest.xml:30:9-34:20
MERGED from [com.google.android.gms:play-services-analytics:11.8.0] /Users/shri/.gradle/caches/transforms-1/files-1.1/play-services-analytics-11.8.0.aar/1d0b7bc6a51dfe35e069921e5c46d42d/AndroidManifest.xml:30:9-34:20
	android:enabled
		ADDED from /Users/shri/Documents/Projects/Mark/BatteryRenting/renting/platforms/android/app/src/main/AndroidManifest.xml:24:19-41
	android:exported
		ADDED from [com.google.android.gms:play-services-analytics:11.8.0] /Users/shri/.gradle/caches/transforms-1/files-1.1/play-services-analytics-11.8.0.aar/1d0b7bc6a51dfe35e069921e5c46d42d/AndroidManifest.xml:33:13-37
	android:name
		ADDED from /Users/shri/Documents/Projects/Mark/BatteryRenting/renting/platforms/android/app/src/main/AndroidManifest.xml:24:42-107
intent-filter#com.google.android.gms.analytics.ANALYTICS_DISPATCH
ADDED from /Users/shri/Documents/Projects/Mark/BatteryRenting/renting/platforms/android/app/src/main/AndroidManifest.xml:25:13-27:29
action#com.google.android.gms.analytics.ANALYTICS_DISPATCH
ADDED from /Users/shri/Documents/Projects/Mark/BatteryRenting/renting/platforms/android/app/src/main/AndroidManifest.xml:26:17-94
	android:name
		ADDED from /Users/shri/Documents/Projects/Mark/BatteryRenting/renting/platforms/android/app/src/main/AndroidManifest.xml:26:25-91
service#com.google.android.gms.analytics.AnalyticsService
ADDED from /Users/shri/Documents/Projects/Mark/BatteryRenting/renting/platforms/android/app/src/main/AndroidManifest.xml:29:9-133
MERGED from [com.google.android.gms:play-services-analytics:11.8.0] /Users/shri/.gradle/caches/transforms-1/files-1.1/play-services-analytics-11.8.0.aar/1d0b7bc6a51dfe35e069921e5c46d42d/AndroidManifest.xml:36:9-39:40
MERGED from [com.google.android.gms:play-services-analytics:11.8.0] /Users/shri/.gradle/caches/transforms-1/files-1.1/play-services-analytics-11.8.0.aar/1d0b7bc6a51dfe35e069921e5c46d42d/AndroidManifest.xml:36:9-39:40
	android:enabled
		ADDED from /Users/shri/Documents/Projects/Mark/BatteryRenting/renting/platforms/android/app/src/main/AndroidManifest.xml:29:18-40
	android:exported
		ADDED from /Users/shri/Documents/Projects/Mark/BatteryRenting/renting/platforms/android/app/src/main/AndroidManifest.xml:29:41-65
	android:name
		ADDED from /Users/shri/Documents/Projects/Mark/BatteryRenting/renting/platforms/android/app/src/main/AndroidManifest.xml:29:66-130
receiver#com.google.android.gms.analytics.CampaignTrackingReceiver
ADDED from /Users/shri/Documents/Projects/Mark/BatteryRenting/renting/platforms/android/app/src/main/AndroidManifest.xml:30:9-34:20
	android:enabled
		ADDED from /Users/shri/Documents/Projects/Mark/BatteryRenting/renting/platforms/android/app/src/main/AndroidManifest.xml:30:19-41
	android:exported
		ADDED from /Users/shri/Documents/Projects/Mark/BatteryRenting/renting/platforms/android/app/src/main/AndroidManifest.xml:30:42-65
	android:name
		ADDED from /Users/shri/Documents/Projects/Mark/BatteryRenting/renting/platforms/android/app/src/main/AndroidManifest.xml:30:66-138
intent-filter#com.android.vending.INSTALL_REFERRER
ADDED from /Users/shri/Documents/Projects/Mark/BatteryRenting/renting/platforms/android/app/src/main/AndroidManifest.xml:31:13-33:29
action#com.android.vending.INSTALL_REFERRER
ADDED from /Users/shri/Documents/Projects/Mark/BatteryRenting/renting/platforms/android/app/src/main/AndroidManifest.xml:32:17-79
	android:name
		ADDED from /Users/shri/Documents/Projects/Mark/BatteryRenting/renting/platforms/android/app/src/main/AndroidManifest.xml:32:25-76
service#com.google.android.gms.analytics.CampaignTrackingService
ADDED from /Users/shri/Documents/Projects/Mark/BatteryRenting/renting/platforms/android/app/src/main/AndroidManifest.xml:35:9-140
	android:enabled
		ADDED from /Users/shri/Documents/Projects/Mark/BatteryRenting/renting/platforms/android/app/src/main/AndroidManifest.xml:35:18-40
	android:exported
		ADDED from /Users/shri/Documents/Projects/Mark/BatteryRenting/renting/platforms/android/app/src/main/AndroidManifest.xml:35:41-65
	android:name
		ADDED from /Users/shri/Documents/Projects/Mark/BatteryRenting/renting/platforms/android/app/src/main/AndroidManifest.xml:35:66-137
activity#com.google.zxing.client.android.CaptureActivity
ADDED from /Users/shri/Documents/Projects/Mark/BatteryRenting/renting/platforms/android/app/src/main/AndroidManifest.xml:36:9-311
	android:clearTaskOnLaunch
		ADDED from /Users/shri/Documents/Projects/Mark/BatteryRenting/renting/platforms/android/app/src/main/AndroidManifest.xml:36:19-51
	android:windowSoftInputMode
		ADDED from /Users/shri/Documents/Projects/Mark/BatteryRenting/renting/platforms/android/app/src/main/AndroidManifest.xml:36:261-308
	android:exported
		ADDED from /Users/shri/Documents/Projects/Mark/BatteryRenting/renting/platforms/android/app/src/main/AndroidManifest.xml:36:114-138
	android:configChanges
		ADDED from /Users/shri/Documents/Projects/Mark/BatteryRenting/renting/platforms/android/app/src/main/AndroidManifest.xml:36:52-113
	android:theme
		ADDED from /Users/shri/Documents/Projects/Mark/BatteryRenting/renting/platforms/android/app/src/main/AndroidManifest.xml:36:202-260
	android:name
		ADDED from /Users/shri/Documents/Projects/Mark/BatteryRenting/renting/platforms/android/app/src/main/AndroidManifest.xml:36:139-201
activity#com.google.zxing.client.android.encode.EncodeActivity
ADDED from /Users/shri/Documents/Projects/Mark/BatteryRenting/renting/platforms/android/app/src/main/AndroidManifest.xml:37:9-112
	android:label
		ADDED from /Users/shri/Documents/Projects/Mark/BatteryRenting/renting/platforms/android/app/src/main/AndroidManifest.xml:37:19-40
	android:name
		ADDED from /Users/shri/Documents/Projects/Mark/BatteryRenting/renting/platforms/android/app/src/main/AndroidManifest.xml:37:41-109
uses-sdk
ADDED from /Users/shri/Documents/Projects/Mark/BatteryRenting/renting/platforms/android/app/src/main/AndroidManifest.xml:39:5-74
INJECTED from /Users/shri/Documents/Projects/Mark/BatteryRenting/renting/platforms/android/app/src/main/AndroidManifest.xml:39:5-74
MERGED from [me.leolin:ShortcutBadger:1.1.4] /Users/shri/.gradle/caches/transforms-1/files-1.1/ShortcutBadger-1.1.4.aar/abbde684ffb01cee5be0b5692f7a50c8/AndroidManifest.xml:7:5-9:41
MERGED from [me.leolin:ShortcutBadger:1.1.4] /Users/shri/.gradle/caches/transforms-1/files-1.1/ShortcutBadger-1.1.4.aar/abbde684ffb01cee5be0b5692f7a50c8/AndroidManifest.xml:7:5-9:41
MERGED from [com.google.firebase:firebase-crash:11.8.0] /Users/shri/.gradle/caches/transforms-1/files-1.1/firebase-crash-11.8.0.aar/12733be7820ee415ec2e3dbe1587d264/AndroidManifest.xml:20:5-44
MERGED from [com.google.firebase:firebase-crash:11.8.0] /Users/shri/.gradle/caches/transforms-1/files-1.1/firebase-crash-11.8.0.aar/12733be7820ee415ec2e3dbe1587d264/AndroidManifest.xml:20:5-44
MERGED from [com.google.firebase:firebase-auth:11.8.0] /Users/shri/.gradle/caches/transforms-1/files-1.1/firebase-auth-11.8.0.aar/c02482b0cedbd22ba0171afb693af566/AndroidManifest.xml:20:5-44
MERGED from [com.google.firebase:firebase-auth:11.8.0] /Users/shri/.gradle/caches/transforms-1/files-1.1/firebase-auth-11.8.0.aar/c02482b0cedbd22ba0171afb693af566/AndroidManifest.xml:20:5-44
MERGED from [org.xwalk:xwalk_core_library:23.53.589.4] /Users/shri/.gradle/caches/transforms-1/files-1.1/xwalk_core_library-23.53.589.4.aar/588aae8066c4ac16fd88249d79b0a343/AndroidManifest.xml:6:5-8:41
MERGED from [org.xwalk:xwalk_core_library:23.53.589.4] /Users/shri/.gradle/caches/transforms-1/files-1.1/xwalk_core_library-23.53.589.4.aar/588aae8066c4ac16fd88249d79b0a343/AndroidManifest.xml:6:5-8:41
MERGED from [com.google.android.gms:play-services-tagmanager:11.8.0] /Users/shri/.gradle/caches/transforms-1/files-1.1/play-services-tagmanager-11.8.0.aar/483218f4fa283dbf5000a667d9cb8962/AndroidManifest.xml:20:5-44
MERGED from [com.google.android.gms:play-services-tagmanager:11.8.0] /Users/shri/.gradle/caches/transforms-1/files-1.1/play-services-tagmanager-11.8.0.aar/483218f4fa283dbf5000a667d9cb8962/AndroidManifest.xml:20:5-44
MERGED from [com.google.firebase:firebase-messaging:11.8.0] /Users/shri/.gradle/caches/transforms-1/files-1.1/firebase-messaging-11.8.0.aar/30dfd140a86e37d411c1c890a46e8559/AndroidManifest.xml:20:5-44
MERGED from [com.google.firebase:firebase-messaging:11.8.0] /Users/shri/.gradle/caches/transforms-1/files-1.1/firebase-messaging-11.8.0.aar/30dfd140a86e37d411c1c890a46e8559/AndroidManifest.xml:20:5-44
MERGED from [com.google.firebase:firebase-config:11.8.0] /Users/shri/.gradle/caches/transforms-1/files-1.1/firebase-config-11.8.0.aar/a498a027543be08fe6302a6f873f592b/AndroidManifest.xml:20:5-44
MERGED from [com.google.firebase:firebase-config:11.8.0] /Users/shri/.gradle/caches/transforms-1/files-1.1/firebase-config-11.8.0.aar/a498a027543be08fe6302a6f873f592b/AndroidManifest.xml:20:5-44
MERGED from [com.google.android.gms:play-services-analytics:11.8.0] /Users/shri/.gradle/caches/transforms-1/files-1.1/play-services-analytics-11.8.0.aar/1d0b7bc6a51dfe35e069921e5c46d42d/AndroidManifest.xml:20:5-44
MERGED from [com.google.android.gms:play-services-analytics:11.8.0] /Users/shri/.gradle/caches/transforms-1/files-1.1/play-services-analytics-11.8.0.aar/1d0b7bc6a51dfe35e069921e5c46d42d/AndroidManifest.xml:20:5-44
MERGED from [com.google.firebase:firebase-core:11.8.0] /Users/shri/.gradle/caches/transforms-1/files-1.1/firebase-core-11.8.0.aar/cd07b5d11504ae4272f26137363aefd1/AndroidManifest.xml:4:5-43
MERGED from [com.google.firebase:firebase-core:11.8.0] /Users/shri/.gradle/caches/transforms-1/files-1.1/firebase-core-11.8.0.aar/cd07b5d11504ae4272f26137363aefd1/AndroidManifest.xml:4:5-43
MERGED from [com.google.android.gms:play-services-tagmanager-api:11.8.0] /Users/shri/.gradle/caches/transforms-1/files-1.1/play-services-tagmanager-api-11.8.0.aar/382a689e005dfb1efb941367f14ca28a/AndroidManifest.xml:20:5-44
MERGED from [com.google.android.gms:play-services-tagmanager-api:11.8.0] /Users/shri/.gradle/caches/transforms-1/files-1.1/play-services-tagmanager-api-11.8.0.aar/382a689e005dfb1efb941367f14ca28a/AndroidManifest.xml:20:5-44
MERGED from [com.google.firebase:firebase-analytics:11.8.0] /Users/shri/.gradle/caches/transforms-1/files-1.1/firebase-analytics-11.8.0.aar/2b9e801f6be8be137b4669c3bd7eb002/AndroidManifest.xml:20:5-44
MERGED from [com.google.firebase:firebase-analytics:11.8.0] /Users/shri/.gradle/caches/transforms-1/files-1.1/firebase-analytics-11.8.0.aar/2b9e801f6be8be137b4669c3bd7eb002/AndroidManifest.xml:20:5-44
MERGED from [com.google.firebase:firebase-analytics-impl:11.8.0] /Users/shri/.gradle/caches/transforms-1/files-1.1/firebase-analytics-impl-11.8.0.aar/c71aa951e0b8bdff3321ea7dffb420ee/AndroidManifest.xml:20:5-44
MERGED from [com.google.firebase:firebase-analytics-impl:11.8.0] /Users/shri/.gradle/caches/transforms-1/files-1.1/firebase-analytics-impl-11.8.0.aar/c71aa951e0b8bdff3321ea7dffb420ee/AndroidManifest.xml:20:5-44
MERGED from [com.google.firebase:firebase-iid:11.8.0] /Users/shri/.gradle/caches/transforms-1/files-1.1/firebase-iid-11.8.0.aar/388e770c7952ee37cb9aded38188d93f/AndroidManifest.xml:20:5-44
MERGED from [com.google.firebase:firebase-iid:11.8.0] /Users/shri/.gradle/caches/transforms-1/files-1.1/firebase-iid-11.8.0.aar/388e770c7952ee37cb9aded38188d93f/AndroidManifest.xml:20:5-44
MERGED from [com.google.firebase:firebase-common:11.8.0] /Users/shri/.gradle/caches/transforms-1/files-1.1/firebase-common-11.8.0.aar/9d4a1f0405dff92ae8fe7d614d4a458d/AndroidManifest.xml:5:5-44
MERGED from [com.google.firebase:firebase-common:11.8.0] /Users/shri/.gradle/caches/transforms-1/files-1.1/firebase-common-11.8.0.aar/9d4a1f0405dff92ae8fe7d614d4a458d/AndroidManifest.xml:5:5-44
MERGED from [com.google.android.gms:play-services-tagmanager-v4-impl:11.8.0] /Users/shri/.gradle/caches/transforms-1/files-1.1/play-services-tagmanager-v4-impl-11.8.0.aar/009d967e502efc56c5f8c97618a78ae9/AndroidManifest.xml:20:5-44
MERGED from [com.google.android.gms:play-services-tagmanager-v4-impl:11.8.0] /Users/shri/.gradle/caches/transforms-1/files-1.1/play-services-tagmanager-v4-impl-11.8.0.aar/009d967e502efc56c5f8c97618a78ae9/AndroidManifest.xml:20:5-44
MERGED from [com.google.android.gms:play-services-analytics-impl:11.8.0] /Users/shri/.gradle/caches/transforms-1/files-1.1/play-services-analytics-impl-11.8.0.aar/946bc0456a4b17771bac19028888f9e5/AndroidManifest.xml:20:5-44
MERGED from [com.google.android.gms:play-services-analytics-impl:11.8.0] /Users/shri/.gradle/caches/transforms-1/files-1.1/play-services-analytics-impl-11.8.0.aar/946bc0456a4b17771bac19028888f9e5/AndroidManifest.xml:20:5-44
MERGED from [com.google.android.gms:play-services-base:11.8.0] /Users/shri/.gradle/caches/transforms-1/files-1.1/play-services-base-11.8.0.aar/fc3a850c00ee598103dc1eadd5a91431/AndroidManifest.xml:20:5-44
MERGED from [com.google.android.gms:play-services-base:11.8.0] /Users/shri/.gradle/caches/transforms-1/files-1.1/play-services-base-11.8.0.aar/fc3a850c00ee598103dc1eadd5a91431/AndroidManifest.xml:20:5-44
MERGED from [com.google.android.gms:play-services-tasks:11.8.0] /Users/shri/.gradle/caches/transforms-1/files-1.1/play-services-tasks-11.8.0.aar/20f3ad62a804c8a9ad97f4249fd186de/AndroidManifest.xml:5:5-44
MERGED from [com.google.android.gms:play-services-tasks:11.8.0] /Users/shri/.gradle/caches/transforms-1/files-1.1/play-services-tasks-11.8.0.aar/20f3ad62a804c8a9ad97f4249fd186de/AndroidManifest.xml:5:5-44
MERGED from [com.google.android.gms:play-services-basement:11.8.0] /Users/shri/.gradle/caches/transforms-1/files-1.1/play-services-basement-11.8.0.aar/5c87e1bb73fb9bfb3f77328dc39c677d/AndroidManifest.xml:20:5-44
MERGED from [com.google.android.gms:play-services-basement:11.8.0] /Users/shri/.gradle/caches/transforms-1/files-1.1/play-services-basement-11.8.0.aar/5c87e1bb73fb9bfb3f77328dc39c677d/AndroidManifest.xml:20:5-44
MERGED from [com.android.support:support-v4:27.0.2] /Users/shri/.gradle/caches/transforms-1/files-1.1/support-v4-27.0.2.aar/c088e1da8867ad9298b398d26f54bb23/AndroidManifest.xml:20:5-44
MERGED from [com.android.support:support-v4:27.0.2] /Users/shri/.gradle/caches/transforms-1/files-1.1/support-v4-27.0.2.aar/c088e1da8867ad9298b398d26f54bb23/AndroidManifest.xml:20:5-44
MERGED from [:barcodescanner-release-2.1.5:] /Users/shri/.gradle/caches/transforms-1/files-1.1/barcodescanner-release-2.1.5.aar/f897be50df40e178d10b433e4d831d27/AndroidManifest.xml:7:5-9:41
MERGED from [:barcodescanner-release-2.1.5:] /Users/shri/.gradle/caches/transforms-1/files-1.1/barcodescanner-release-2.1.5.aar/f897be50df40e178d10b433e4d831d27/AndroidManifest.xml:7:5-9:41
MERGED from [:CordovaLib] /Users/shri/Documents/Projects/Mark/BatteryRenting/renting/platforms/android/CordovaLib/build/intermediates/manifests/full/debug/AndroidManifest.xml:25:5-44
MERGED from [:CordovaLib] /Users/shri/Documents/Projects/Mark/BatteryRenting/renting/platforms/android/CordovaLib/build/intermediates/manifests/full/debug/AndroidManifest.xml:25:5-44
MERGED from [com.google.firebase:firebase-crash-license:11.8.0] /Users/shri/.gradle/caches/transforms-1/files-1.1/firebase-crash-license-11.8.0.aar/48bbe91325161826539ebdd7811c950c/AndroidManifest.xml:4:5-43
MERGED from [com.google.firebase:firebase-crash-license:11.8.0] /Users/shri/.gradle/caches/transforms-1/files-1.1/firebase-crash-license-11.8.0.aar/48bbe91325161826539ebdd7811c950c/AndroidManifest.xml:4:5-43
MERGED from [com.google.firebase:firebase-auth-license:11.8.0] /Users/shri/.gradle/caches/transforms-1/files-1.1/firebase-auth-license-11.8.0.aar/ac20f1ff849ae142200b87809313db84/AndroidManifest.xml:4:5-43
MERGED from [com.google.firebase:firebase-auth-license:11.8.0] /Users/shri/.gradle/caches/transforms-1/files-1.1/firebase-auth-license-11.8.0.aar/ac20f1ff849ae142200b87809313db84/AndroidManifest.xml:4:5-43
MERGED from [com.android.support:support-media-compat:27.0.2] /Users/shri/.gradle/caches/transforms-1/files-1.1/support-media-compat-27.0.2.aar/38b512b6a0251f2694e9b0ead58a40b4/AndroidManifest.xml:20:5-44
MERGED from [com.android.support:support-media-compat:27.0.2] /Users/shri/.gradle/caches/transforms-1/files-1.1/support-media-compat-27.0.2.aar/38b512b6a0251f2694e9b0ead58a40b4/AndroidManifest.xml:20:5-44
MERGED from [com.android.support:support-fragment:27.0.2] /Users/shri/.gradle/caches/transforms-1/files-1.1/support-fragment-27.0.2.aar/0fd09c6088092d0255bf6cd6d0903e3e/AndroidManifest.xml:20:5-44
MERGED from [com.android.support:support-fragment:27.0.2] /Users/shri/.gradle/caches/transforms-1/files-1.1/support-fragment-27.0.2.aar/0fd09c6088092d0255bf6cd6d0903e3e/AndroidManifest.xml:20:5-44
MERGED from [com.android.support:support-core-utils:27.0.2] /Users/shri/.gradle/caches/transforms-1/files-1.1/support-core-utils-27.0.2.aar/d2eca5b0d3a85d0560886fa2c4fd8794/AndroidManifest.xml:20:5-44
MERGED from [com.android.support:support-core-utils:27.0.2] /Users/shri/.gradle/caches/transforms-1/files-1.1/support-core-utils-27.0.2.aar/d2eca5b0d3a85d0560886fa2c4fd8794/AndroidManifest.xml:20:5-44
MERGED from [com.android.support:support-core-ui:27.0.2] /Users/shri/.gradle/caches/transforms-1/files-1.1/support-core-ui-27.0.2.aar/8f3ffac6383456cedd72dbc88f30b59d/AndroidManifest.xml:20:5-44
MERGED from [com.android.support:support-core-ui:27.0.2] /Users/shri/.gradle/caches/transforms-1/files-1.1/support-core-ui-27.0.2.aar/8f3ffac6383456cedd72dbc88f30b59d/AndroidManifest.xml:20:5-44
MERGED from [com.android.support:support-compat:27.0.2] /Users/shri/.gradle/caches/transforms-1/files-1.1/support-compat-27.0.2.aar/47041f06b1c429911c7c0df4089adeca/AndroidManifest.xml:20:5-44
MERGED from [com.android.support:support-compat:27.0.2] /Users/shri/.gradle/caches/transforms-1/files-1.1/support-compat-27.0.2.aar/47041f06b1c429911c7c0df4089adeca/AndroidManifest.xml:20:5-44
MERGED from [com.google.android.gms:play-services-tagmanager-license:11.8.0] /Users/shri/.gradle/caches/transforms-1/files-1.1/play-services-tagmanager-license-11.8.0.aar/cd9debf19c4fb5c030eb1771700f8a3b/AndroidManifest.xml:4:5-43
MERGED from [com.google.android.gms:play-services-tagmanager-license:11.8.0] /Users/shri/.gradle/caches/transforms-1/files-1.1/play-services-tagmanager-license-11.8.0.aar/cd9debf19c4fb5c030eb1771700f8a3b/AndroidManifest.xml:4:5-43
MERGED from [com.google.firebase:firebase-messaging-license:11.8.0] /Users/shri/.gradle/caches/transforms-1/files-1.1/firebase-messaging-license-11.8.0.aar/995700dd9c3d978df5a0aad7bf00e804/AndroidManifest.xml:4:5-43
MERGED from [com.google.firebase:firebase-messaging-license:11.8.0] /Users/shri/.gradle/caches/transforms-1/files-1.1/firebase-messaging-license-11.8.0.aar/995700dd9c3d978df5a0aad7bf00e804/AndroidManifest.xml:4:5-43
MERGED from [com.google.firebase:firebase-config-license:11.8.0] /Users/shri/.gradle/caches/transforms-1/files-1.1/firebase-config-license-11.8.0.aar/dba180e479b2d201dbe6314e6a8729e2/AndroidManifest.xml:4:5-43
MERGED from [com.google.firebase:firebase-config-license:11.8.0] /Users/shri/.gradle/caches/transforms-1/files-1.1/firebase-config-license-11.8.0.aar/dba180e479b2d201dbe6314e6a8729e2/AndroidManifest.xml:4:5-43
MERGED from [com.google.android.gms:play-services-analytics-license:11.8.0] /Users/shri/.gradle/caches/transforms-1/files-1.1/play-services-analytics-license-11.8.0.aar/8b3ed95af215eaf3b69742a18ee88254/AndroidManifest.xml:4:5-43
MERGED from [com.google.android.gms:play-services-analytics-license:11.8.0] /Users/shri/.gradle/caches/transforms-1/files-1.1/play-services-analytics-license-11.8.0.aar/8b3ed95af215eaf3b69742a18ee88254/AndroidManifest.xml:4:5-43
MERGED from [com.google.android.gms:play-services-basement-license:11.8.0] /Users/shri/.gradle/caches/transforms-1/files-1.1/play-services-basement-license-11.8.0.aar/07473766cd73680557919f30329c8792/AndroidManifest.xml:4:5-43
MERGED from [com.google.android.gms:play-services-basement-license:11.8.0] /Users/shri/.gradle/caches/transforms-1/files-1.1/play-services-basement-license-11.8.0.aar/07473766cd73680557919f30329c8792/AndroidManifest.xml:4:5-43
MERGED from [com.google.firebase:firebase-iid-license:11.8.0] /Users/shri/.gradle/caches/transforms-1/files-1.1/firebase-iid-license-11.8.0.aar/d4b98c49a6332cec828e0725435da249/AndroidManifest.xml:4:5-43
MERGED from [com.google.firebase:firebase-iid-license:11.8.0] /Users/shri/.gradle/caches/transforms-1/files-1.1/firebase-iid-license-11.8.0.aar/d4b98c49a6332cec828e0725435da249/AndroidManifest.xml:4:5-43
MERGED from [com.google.firebase:firebase-common-license:11.8.0] /Users/shri/.gradle/caches/transforms-1/files-1.1/firebase-common-license-11.8.0.aar/d4f8d54c0437d458a27ff493015fef29/AndroidManifest.xml:4:5-43
MERGED from [com.google.firebase:firebase-common-license:11.8.0] /Users/shri/.gradle/caches/transforms-1/files-1.1/firebase-common-license-11.8.0.aar/d4f8d54c0437d458a27ff493015fef29/AndroidManifest.xml:4:5-43
MERGED from [com.google.firebase:firebase-analytics-license:11.8.0] /Users/shri/.gradle/caches/transforms-1/files-1.1/firebase-analytics-license-11.8.0.aar/f2d5f911d8ac14ac6e8d8f87cf06cab0/AndroidManifest.xml:4:5-43
MERGED from [com.google.firebase:firebase-analytics-license:11.8.0] /Users/shri/.gradle/caches/transforms-1/files-1.1/firebase-analytics-license-11.8.0.aar/f2d5f911d8ac14ac6e8d8f87cf06cab0/AndroidManifest.xml:4:5-43
MERGED from [com.google.android.gms:play-services-base-license:11.8.0] /Users/shri/.gradle/caches/transforms-1/files-1.1/play-services-base-license-11.8.0.aar/a3be8d17ce9d7f443fa40800b6b7dde3/AndroidManifest.xml:4:5-43
MERGED from [com.google.android.gms:play-services-base-license:11.8.0] /Users/shri/.gradle/caches/transforms-1/files-1.1/play-services-base-license-11.8.0.aar/a3be8d17ce9d7f443fa40800b6b7dde3/AndroidManifest.xml:4:5-43
MERGED from [com.google.android.gms:play-services-tasks-license:11.8.0] /Users/shri/.gradle/caches/transforms-1/files-1.1/play-services-tasks-license-11.8.0.aar/64bf83d9e1dc1e4ebea82d07f3f60abb/AndroidManifest.xml:4:5-43
MERGED from [com.google.android.gms:play-services-tasks-license:11.8.0] /Users/shri/.gradle/caches/transforms-1/files-1.1/play-services-tasks-license-11.8.0.aar/64bf83d9e1dc1e4ebea82d07f3f60abb/AndroidManifest.xml:4:5-43
MERGED from [com.google.android.gms:play-services-analytics-impl-license:11.8.0] /Users/shri/.gradle/caches/transforms-1/files-1.1/play-services-analytics-impl-license-11.8.0.aar/915de42dbb282f6e9e81e376a6be5185/AndroidManifest.xml:4:5-43
MERGED from [com.google.android.gms:play-services-analytics-impl-license:11.8.0] /Users/shri/.gradle/caches/transforms-1/files-1.1/play-services-analytics-impl-license-11.8.0.aar/915de42dbb282f6e9e81e376a6be5185/AndroidManifest.xml:4:5-43
MERGED from [com.google.android.gms:play-services-tagmanager-api-license:11.8.0] /Users/shri/.gradle/caches/transforms-1/files-1.1/play-services-tagmanager-api-license-11.8.0.aar/3b0b6a120eab76a3919e15ed437cb1d7/AndroidManifest.xml:4:5-43
MERGED from [com.google.android.gms:play-services-tagmanager-api-license:11.8.0] /Users/shri/.gradle/caches/transforms-1/files-1.1/play-services-tagmanager-api-license-11.8.0.aar/3b0b6a120eab76a3919e15ed437cb1d7/AndroidManifest.xml:4:5-43
MERGED from [com.google.android.gms:play-services-tagmanager-v4-impl-license:11.8.0] /Users/shri/.gradle/caches/transforms-1/files-1.1/play-services-tagmanager-v4-impl-license-11.8.0.aar/e78a586ad802cd1d5cced44dd64c916e/AndroidManifest.xml:4:5-43
MERGED from [com.google.android.gms:play-services-tagmanager-v4-impl-license:11.8.0] /Users/shri/.gradle/caches/transforms-1/files-1.1/play-services-tagmanager-v4-impl-license-11.8.0.aar/e78a586ad802cd1d5cced44dd64c916e/AndroidManifest.xml:4:5-43
MERGED from [com.google.firebase:firebase-analytics-impl-license:11.8.0] /Users/shri/.gradle/caches/transforms-1/files-1.1/firebase-analytics-impl-license-11.8.0.aar/f622f6b54d96af36cfb1b94304c64c02/AndroidManifest.xml:4:5-43
MERGED from [com.google.firebase:firebase-analytics-impl-license:11.8.0] /Users/shri/.gradle/caches/transforms-1/files-1.1/firebase-analytics-impl-license-11.8.0.aar/f622f6b54d96af36cfb1b94304c64c02/AndroidManifest.xml:4:5-43
MERGED from [android.arch.lifecycle:runtime:1.0.3] /Users/shri/.gradle/caches/transforms-1/files-1.1/runtime-1.0.3.aar/6420535ca509c05220fdf5064fbc9e76/AndroidManifest.xml:20:5-22:41
MERGED from [android.arch.lifecycle:runtime:1.0.3] /Users/shri/.gradle/caches/transforms-1/files-1.1/runtime-1.0.3.aar/6420535ca509c05220fdf5064fbc9e76/AndroidManifest.xml:20:5-22:41
INJECTED from /Users/shri/Documents/Projects/Mark/BatteryRenting/renting/platforms/android/app/src/main/AndroidManifest.xml:39:5-74
	android:targetSdkVersion
		ADDED from /Users/shri/Documents/Projects/Mark/BatteryRenting/renting/platforms/android/app/src/main/AndroidManifest.xml:39:42-71
	android:minSdkVersion
		ADDED from /Users/shri/Documents/Projects/Mark/BatteryRenting/renting/platforms/android/app/src/main/AndroidManifest.xml:39:15-41
		INJECTED from /Users/shri/Documents/Projects/Mark/BatteryRenting/renting/platforms/android/app/src/main/AndroidManifest.xml
		INJECTED from /Users/shri/Documents/Projects/Mark/BatteryRenting/renting/platforms/android/app/src/main/AndroidManifest.xml
uses-permission#android.permission.ACCESS_NETWORK_STATE
ADDED from /Users/shri/Documents/Projects/Mark/BatteryRenting/renting/platforms/android/app/src/main/AndroidManifest.xml:40:5-79
MERGED from [com.google.android.gms:play-services-analytics:11.8.0] /Users/shri/.gradle/caches/transforms-1/files-1.1/play-services-analytics-11.8.0.aar/1d0b7bc6a51dfe35e069921e5c46d42d/AndroidManifest.xml:24:5-79
MERGED from [com.google.android.gms:play-services-analytics:11.8.0] /Users/shri/.gradle/caches/transforms-1/files-1.1/play-services-analytics-11.8.0.aar/1d0b7bc6a51dfe35e069921e5c46d42d/AndroidManifest.xml:24:5-79
MERGED from [com.google.android.gms:play-services-tagmanager-api:11.8.0] /Users/shri/.gradle/caches/transforms-1/files-1.1/play-services-tagmanager-api-11.8.0.aar/382a689e005dfb1efb941367f14ca28a/AndroidManifest.xml:24:5-79
MERGED from [com.google.android.gms:play-services-tagmanager-api:11.8.0] /Users/shri/.gradle/caches/transforms-1/files-1.1/play-services-tagmanager-api-11.8.0.aar/382a689e005dfb1efb941367f14ca28a/AndroidManifest.xml:24:5-79
MERGED from [com.google.firebase:firebase-analytics:11.8.0] /Users/shri/.gradle/caches/transforms-1/files-1.1/firebase-analytics-11.8.0.aar/2b9e801f6be8be137b4669c3bd7eb002/AndroidManifest.xml:24:5-79
MERGED from [com.google.firebase:firebase-analytics:11.8.0] /Users/shri/.gradle/caches/transforms-1/files-1.1/firebase-analytics-11.8.0.aar/2b9e801f6be8be137b4669c3bd7eb002/AndroidManifest.xml:24:5-79
MERGED from [com.google.firebase:firebase-analytics-impl:11.8.0] /Users/shri/.gradle/caches/transforms-1/files-1.1/firebase-analytics-impl-11.8.0.aar/c71aa951e0b8bdff3321ea7dffb420ee/AndroidManifest.xml:24:5-79
MERGED from [com.google.firebase:firebase-analytics-impl:11.8.0] /Users/shri/.gradle/caches/transforms-1/files-1.1/firebase-analytics-impl-11.8.0.aar/c71aa951e0b8bdff3321ea7dffb420ee/AndroidManifest.xml:24:5-79
MERGED from [com.google.firebase:firebase-iid:11.8.0] /Users/shri/.gradle/caches/transforms-1/files-1.1/firebase-iid-11.8.0.aar/388e770c7952ee37cb9aded38188d93f/AndroidManifest.xml:22:5-79
MERGED from [com.google.firebase:firebase-iid:11.8.0] /Users/shri/.gradle/caches/transforms-1/files-1.1/firebase-iid-11.8.0.aar/388e770c7952ee37cb9aded38188d93f/AndroidManifest.xml:22:5-79
MERGED from [com.google.android.gms:play-services-analytics-impl:11.8.0] /Users/shri/.gradle/caches/transforms-1/files-1.1/play-services-analytics-impl-11.8.0.aar/946bc0456a4b17771bac19028888f9e5/AndroidManifest.xml:24:5-79
MERGED from [com.google.android.gms:play-services-analytics-impl:11.8.0] /Users/shri/.gradle/caches/transforms-1/files-1.1/play-services-analytics-impl-11.8.0.aar/946bc0456a4b17771bac19028888f9e5/AndroidManifest.xml:24:5-79
	android:name
		ADDED from /Users/shri/Documents/Projects/Mark/BatteryRenting/renting/platforms/android/app/src/main/AndroidManifest.xml:40:22-76
uses-permission#android.permission.ACCESS_WIFI_STATE
ADDED from /Users/shri/Documents/Projects/Mark/BatteryRenting/renting/platforms/android/app/src/main/AndroidManifest.xml:41:5-76
	android:name
		ADDED from /Users/shri/Documents/Projects/Mark/BatteryRenting/renting/platforms/android/app/src/main/AndroidManifest.xml:41:22-73
uses-permission#android.permission.WAKE_LOCK
ADDED from /Users/shri/Documents/Projects/Mark/BatteryRenting/renting/platforms/android/app/src/main/AndroidManifest.xml:42:5-68
MERGED from [com.google.android.gms:play-services-analytics:11.8.0] /Users/shri/.gradle/caches/transforms-1/files-1.1/play-services-analytics-11.8.0.aar/1d0b7bc6a51dfe35e069921e5c46d42d/AndroidManifest.xml:27:5-68
MERGED from [com.google.android.gms:play-services-analytics:11.8.0] /Users/shri/.gradle/caches/transforms-1/files-1.1/play-services-analytics-11.8.0.aar/1d0b7bc6a51dfe35e069921e5c46d42d/AndroidManifest.xml:27:5-68
MERGED from [com.google.firebase:firebase-analytics:11.8.0] /Users/shri/.gradle/caches/transforms-1/files-1.1/firebase-analytics-11.8.0.aar/2b9e801f6be8be137b4669c3bd7eb002/AndroidManifest.xml:25:5-68
MERGED from [com.google.firebase:firebase-analytics:11.8.0] /Users/shri/.gradle/caches/transforms-1/files-1.1/firebase-analytics-11.8.0.aar/2b9e801f6be8be137b4669c3bd7eb002/AndroidManifest.xml:25:5-68
MERGED from [com.google.firebase:firebase-analytics-impl:11.8.0] /Users/shri/.gradle/caches/transforms-1/files-1.1/firebase-analytics-impl-11.8.0.aar/c71aa951e0b8bdff3321ea7dffb420ee/AndroidManifest.xml:25:5-68
MERGED from [com.google.firebase:firebase-analytics-impl:11.8.0] /Users/shri/.gradle/caches/transforms-1/files-1.1/firebase-analytics-impl-11.8.0.aar/c71aa951e0b8bdff3321ea7dffb420ee/AndroidManifest.xml:25:5-68
MERGED from [com.google.firebase:firebase-iid:11.8.0] /Users/shri/.gradle/caches/transforms-1/files-1.1/firebase-iid-11.8.0.aar/388e770c7952ee37cb9aded38188d93f/AndroidManifest.xml:24:5-68
MERGED from [com.google.firebase:firebase-iid:11.8.0] /Users/shri/.gradle/caches/transforms-1/files-1.1/firebase-iid-11.8.0.aar/388e770c7952ee37cb9aded38188d93f/AndroidManifest.xml:24:5-68
MERGED from [com.google.android.gms:play-services-analytics-impl:11.8.0] /Users/shri/.gradle/caches/transforms-1/files-1.1/play-services-analytics-impl-11.8.0.aar/946bc0456a4b17771bac19028888f9e5/AndroidManifest.xml:27:5-68
MERGED from [com.google.android.gms:play-services-analytics-impl:11.8.0] /Users/shri/.gradle/caches/transforms-1/files-1.1/play-services-analytics-impl-11.8.0.aar/946bc0456a4b17771bac19028888f9e5/AndroidManifest.xml:27:5-68
	android:name
		ADDED from /Users/shri/Documents/Projects/Mark/BatteryRenting/renting/platforms/android/app/src/main/AndroidManifest.xml:42:22-65
uses-permission#android.permission.CAMERA
ADDED from /Users/shri/Documents/Projects/Mark/BatteryRenting/renting/platforms/android/app/src/main/AndroidManifest.xml:43:5-65
	android:name
		ADDED from /Users/shri/Documents/Projects/Mark/BatteryRenting/renting/platforms/android/app/src/main/AndroidManifest.xml:43:22-62
uses-permission#android.permission.VIBRATE
ADDED from /Users/shri/Documents/Projects/Mark/BatteryRenting/renting/platforms/android/app/src/main/AndroidManifest.xml:44:5-66
	android:name
		ADDED from /Users/shri/Documents/Projects/Mark/BatteryRenting/renting/platforms/android/app/src/main/AndroidManifest.xml:44:22-63
uses-permission#android.permission.FLASHLIGHT
ADDED from /Users/shri/Documents/Projects/Mark/BatteryRenting/renting/platforms/android/app/src/main/AndroidManifest.xml:45:5-69
	android:name
		ADDED from /Users/shri/Documents/Projects/Mark/BatteryRenting/renting/platforms/android/app/src/main/AndroidManifest.xml:45:22-66
uses-feature#android.hardware.camera
ADDED from /Users/shri/Documents/Projects/Mark/BatteryRenting/renting/platforms/android/app/src/main/AndroidManifest.xml:46:5-84
	android:required
		ADDED from /Users/shri/Documents/Projects/Mark/BatteryRenting/renting/platforms/android/app/src/main/AndroidManifest.xml:46:58-81
	android:name
		ADDED from /Users/shri/Documents/Projects/Mark/BatteryRenting/renting/platforms/android/app/src/main/AndroidManifest.xml:46:19-57
uses-permission#com.sec.android.provider.badge.permission.READ
ADDED from [me.leolin:ShortcutBadger:1.1.4] /Users/shri/.gradle/caches/transforms-1/files-1.1/ShortcutBadger-1.1.4.aar/abbde684ffb01cee5be0b5692f7a50c8/AndroidManifest.xml:19:5-86
	android:name
		ADDED from [me.leolin:ShortcutBadger:1.1.4] /Users/shri/.gradle/caches/transforms-1/files-1.1/ShortcutBadger-1.1.4.aar/abbde684ffb01cee5be0b5692f7a50c8/AndroidManifest.xml:19:22-83
uses-permission#com.sec.android.provider.badge.permission.WRITE
ADDED from [me.leolin:ShortcutBadger:1.1.4] /Users/shri/.gradle/caches/transforms-1/files-1.1/ShortcutBadger-1.1.4.aar/abbde684ffb01cee5be0b5692f7a50c8/AndroidManifest.xml:20:5-87
	android:name
		ADDED from [me.leolin:ShortcutBadger:1.1.4] /Users/shri/.gradle/caches/transforms-1/files-1.1/ShortcutBadger-1.1.4.aar/abbde684ffb01cee5be0b5692f7a50c8/AndroidManifest.xml:20:22-84
uses-permission#com.htc.launcher.permission.READ_SETTINGS
ADDED from [me.leolin:ShortcutBadger:1.1.4] /Users/shri/.gradle/caches/transforms-1/files-1.1/ShortcutBadger-1.1.4.aar/abbde684ffb01cee5be0b5692f7a50c8/AndroidManifest.xml:23:5-81
	android:name
		ADDED from [me.leolin:ShortcutBadger:1.1.4] /Users/shri/.gradle/caches/transforms-1/files-1.1/ShortcutBadger-1.1.4.aar/abbde684ffb01cee5be0b5692f7a50c8/AndroidManifest.xml:23:22-78
uses-permission#com.htc.launcher.permission.UPDATE_SHORTCUT
ADDED from [me.leolin:ShortcutBadger:1.1.4] /Users/shri/.gradle/caches/transforms-1/files-1.1/ShortcutBadger-1.1.4.aar/abbde684ffb01cee5be0b5692f7a50c8/AndroidManifest.xml:24:5-83
	android:name
		ADDED from [me.leolin:ShortcutBadger:1.1.4] /Users/shri/.gradle/caches/transforms-1/files-1.1/ShortcutBadger-1.1.4.aar/abbde684ffb01cee5be0b5692f7a50c8/AndroidManifest.xml:24:22-80
uses-permission#com.sonyericsson.home.permission.BROADCAST_BADGE
ADDED from [me.leolin:ShortcutBadger:1.1.4] /Users/shri/.gradle/caches/transforms-1/files-1.1/ShortcutBadger-1.1.4.aar/abbde684ffb01cee5be0b5692f7a50c8/AndroidManifest.xml:27:5-88
	android:name
		ADDED from [me.leolin:ShortcutBadger:1.1.4] /Users/shri/.gradle/caches/transforms-1/files-1.1/ShortcutBadger-1.1.4.aar/abbde684ffb01cee5be0b5692f7a50c8/AndroidManifest.xml:27:22-85
uses-permission#com.anddoes.launcher.permission.UPDATE_COUNT
ADDED from [me.leolin:ShortcutBadger:1.1.4] /Users/shri/.gradle/caches/transforms-1/files-1.1/ShortcutBadger-1.1.4.aar/abbde684ffb01cee5be0b5692f7a50c8/AndroidManifest.xml:30:5-84
	android:name
		ADDED from [me.leolin:ShortcutBadger:1.1.4] /Users/shri/.gradle/caches/transforms-1/files-1.1/ShortcutBadger-1.1.4.aar/abbde684ffb01cee5be0b5692f7a50c8/AndroidManifest.xml:30:22-81
uses-permission#com.majeur.launcher.permission.UPDATE_BADGE
ADDED from [me.leolin:ShortcutBadger:1.1.4] /Users/shri/.gradle/caches/transforms-1/files-1.1/ShortcutBadger-1.1.4.aar/abbde684ffb01cee5be0b5692f7a50c8/AndroidManifest.xml:33:5-83
	android:name
		ADDED from [me.leolin:ShortcutBadger:1.1.4] /Users/shri/.gradle/caches/transforms-1/files-1.1/ShortcutBadger-1.1.4.aar/abbde684ffb01cee5be0b5692f7a50c8/AndroidManifest.xml:33:22-80
activity#com.google.firebase.auth.internal.FederatedSignInActivity
ADDED from [com.google.firebase:firebase-auth:11.8.0] /Users/shri/.gradle/caches/transforms-1/files-1.1/firebase-auth-11.8.0.aar/c02482b0cedbd22ba0171afb693af566/AndroidManifest.xml:23:9-29:75
	android:excludeFromRecents
		ADDED from [com.google.firebase:firebase-auth:11.8.0] /Users/shri/.gradle/caches/transforms-1/files-1.1/firebase-auth-11.8.0.aar/c02482b0cedbd22ba0171afb693af566/AndroidManifest.xml:25:13-46
	android:launchMode
		ADDED from [com.google.firebase:firebase-auth:11.8.0] /Users/shri/.gradle/caches/transforms-1/files-1.1/firebase-auth-11.8.0.aar/c02482b0cedbd22ba0171afb693af566/AndroidManifest.xml:27:13-48
	android:exported
		ADDED from [com.google.firebase:firebase-auth:11.8.0] /Users/shri/.gradle/caches/transforms-1/files-1.1/firebase-auth-11.8.0.aar/c02482b0cedbd22ba0171afb693af566/AndroidManifest.xml:26:13-36
	android:permission
		ADDED from [com.google.firebase:firebase-auth:11.8.0] /Users/shri/.gradle/caches/transforms-1/files-1.1/firebase-auth-11.8.0.aar/c02482b0cedbd22ba0171afb693af566/AndroidManifest.xml:28:13-102
	android:theme
		ADDED from [com.google.firebase:firebase-auth:11.8.0] /Users/shri/.gradle/caches/transforms-1/files-1.1/firebase-auth-11.8.0.aar/c02482b0cedbd22ba0171afb693af566/AndroidManifest.xml:29:13-72
	android:name
		ADDED from [com.google.firebase:firebase-auth:11.8.0] /Users/shri/.gradle/caches/transforms-1/files-1.1/firebase-auth-11.8.0.aar/c02482b0cedbd22ba0171afb693af566/AndroidManifest.xml:24:13-85
service#com.google.firebase.messaging.FirebaseMessagingService
ADDED from [com.google.firebase:firebase-messaging:11.8.0] /Users/shri/.gradle/caches/transforms-1/files-1.1/firebase-messaging-11.8.0.aar/30dfd140a86e37d411c1c890a46e8559/AndroidManifest.xml:28:9-34:19
	android:exported
		ADDED from [com.google.firebase:firebase-messaging:11.8.0] /Users/shri/.gradle/caches/transforms-1/files-1.1/firebase-messaging-11.8.0.aar/30dfd140a86e37d411c1c890a46e8559/AndroidManifest.xml:30:13-36
	android:name
		ADDED from [com.google.firebase:firebase-messaging:11.8.0] /Users/shri/.gradle/caches/transforms-1/files-1.1/firebase-messaging-11.8.0.aar/30dfd140a86e37d411c1c890a46e8559/AndroidManifest.xml:29:13-82
service#com.google.android.gms.analytics.AnalyticsJobService
ADDED from [com.google.android.gms:play-services-analytics:11.8.0] /Users/shri/.gradle/caches/transforms-1/files-1.1/play-services-analytics-11.8.0.aar/1d0b7bc6a51dfe35e069921e5c46d42d/AndroidManifest.xml:40:9-44:72
	android:enabled
		ADDED from [com.google.android.gms:play-services-analytics:11.8.0] /Users/shri/.gradle/caches/transforms-1/files-1.1/play-services-analytics-11.8.0.aar/1d0b7bc6a51dfe35e069921e5c46d42d/AndroidManifest.xml:42:13-35
	android:exported
		ADDED from [com.google.android.gms:play-services-analytics:11.8.0] /Users/shri/.gradle/caches/transforms-1/files-1.1/play-services-analytics-11.8.0.aar/1d0b7bc6a51dfe35e069921e5c46d42d/AndroidManifest.xml:43:13-37
	android:permission
		ADDED from [com.google.android.gms:play-services-analytics:11.8.0] /Users/shri/.gradle/caches/transforms-1/files-1.1/play-services-analytics-11.8.0.aar/1d0b7bc6a51dfe35e069921e5c46d42d/AndroidManifest.xml:44:13-69
	android:name
		ADDED from [com.google.android.gms:play-services-analytics:11.8.0] /Users/shri/.gradle/caches/transforms-1/files-1.1/play-services-analytics-11.8.0.aar/1d0b7bc6a51dfe35e069921e5c46d42d/AndroidManifest.xml:41:13-80
service#com.google.android.gms.tagmanager.TagManagerService
ADDED from [com.google.android.gms:play-services-tagmanager-api:11.8.0] /Users/shri/.gradle/caches/transforms-1/files-1.1/play-services-tagmanager-api-11.8.0.aar/382a689e005dfb1efb941367f14ca28a/AndroidManifest.xml:27:9-30:40
	android:enabled
		ADDED from [com.google.android.gms:play-services-tagmanager-api:11.8.0] /Users/shri/.gradle/caches/transforms-1/files-1.1/play-services-tagmanager-api-11.8.0.aar/382a689e005dfb1efb941367f14ca28a/AndroidManifest.xml:29:13-35
	android:exported
		ADDED from [com.google.android.gms:play-services-tagmanager-api:11.8.0] /Users/shri/.gradle/caches/transforms-1/files-1.1/play-services-tagmanager-api-11.8.0.aar/382a689e005dfb1efb941367f14ca28a/AndroidManifest.xml:30:13-37
	android:name
		ADDED from [com.google.android.gms:play-services-tagmanager-api:11.8.0] /Users/shri/.gradle/caches/transforms-1/files-1.1/play-services-tagmanager-api-11.8.0.aar/382a689e005dfb1efb941367f14ca28a/AndroidManifest.xml:28:13-79
activity#com.google.android.gms.tagmanager.TagManagerPreviewActivity
ADDED from [com.google.android.gms:play-services-tagmanager-api:11.8.0] /Users/shri/.gradle/caches/transforms-1/files-1.1/play-services-tagmanager-api-11.8.0.aar/382a689e005dfb1efb941367f14ca28a/AndroidManifest.xml:32:9-44:20
	android:noHistory
		ADDED from [com.google.android.gms:play-services-tagmanager-api:11.8.0] /Users/shri/.gradle/caches/transforms-1/files-1.1/play-services-tagmanager-api-11.8.0.aar/382a689e005dfb1efb941367f14ca28a/AndroidManifest.xml:35:13-37
	android:exported
		ADDED from [com.google.android.gms:play-services-tagmanager-api:11.8.0] /Users/shri/.gradle/caches/transforms-1/files-1.1/play-services-tagmanager-api-11.8.0.aar/382a689e005dfb1efb941367f14ca28a/AndroidManifest.xml:34:13-36
	android:name
		ADDED from [com.google.android.gms:play-services-tagmanager-api:11.8.0] /Users/shri/.gradle/caches/transforms-1/files-1.1/play-services-tagmanager-api-11.8.0.aar/382a689e005dfb1efb941367f14ca28a/AndroidManifest.xml:33:13-87
intent-filter#android.intent.action.VIEW+android.intent.category.BROWSABLE+android.intent.category.DEFAULT
ADDED from [com.google.android.gms:play-services-tagmanager-api:11.8.0] /Users/shri/.gradle/caches/transforms-1/files-1.1/play-services-tagmanager-api-11.8.0.aar/382a689e005dfb1efb941367f14ca28a/AndroidManifest.xml:36:13-43:29
data
ADDED from [com.google.android.gms:play-services-tagmanager-api:11.8.0] /Users/shri/.gradle/caches/transforms-1/files-1.1/play-services-tagmanager-api-11.8.0.aar/382a689e005dfb1efb941367f14ca28a/AndroidManifest.xml:37:17-72
	android:scheme
		ADDED from [com.google.android.gms:play-services-tagmanager-api:11.8.0] /Users/shri/.gradle/caches/transforms-1/files-1.1/play-services-tagmanager-api-11.8.0.aar/382a689e005dfb1efb941367f14ca28a/AndroidManifest.xml:37:23-69
action#android.intent.action.VIEW
ADDED from [com.google.android.gms:play-services-tagmanager-api:11.8.0] /Users/shri/.gradle/caches/transforms-1/files-1.1/play-services-tagmanager-api-11.8.0.aar/382a689e005dfb1efb941367f14ca28a/AndroidManifest.xml:39:17-69
	android:name
		ADDED from [com.google.android.gms:play-services-tagmanager-api:11.8.0] /Users/shri/.gradle/caches/transforms-1/files-1.1/play-services-tagmanager-api-11.8.0.aar/382a689e005dfb1efb941367f14ca28a/AndroidManifest.xml:39:25-66
category#android.intent.category.DEFAULT
ADDED from [com.google.android.gms:play-services-tagmanager-api:11.8.0] /Users/shri/.gradle/caches/transforms-1/files-1.1/play-services-tagmanager-api-11.8.0.aar/382a689e005dfb1efb941367f14ca28a/AndroidManifest.xml:41:17-76
	android:name
		ADDED from [com.google.android.gms:play-services-tagmanager-api:11.8.0] /Users/shri/.gradle/caches/transforms-1/files-1.1/play-services-tagmanager-api-11.8.0.aar/382a689e005dfb1efb941367f14ca28a/AndroidManifest.xml:41:27-73
category#android.intent.category.BROWSABLE
ADDED from [com.google.android.gms:play-services-tagmanager-api:11.8.0] /Users/shri/.gradle/caches/transforms-1/files-1.1/play-services-tagmanager-api-11.8.0.aar/382a689e005dfb1efb941367f14ca28a/AndroidManifest.xml:42:17-78
	android:name
		ADDED from [com.google.android.gms:play-services-tagmanager-api:11.8.0] /Users/shri/.gradle/caches/transforms-1/files-1.1/play-services-tagmanager-api-11.8.0.aar/382a689e005dfb1efb941367f14ca28a/AndroidManifest.xml:42:27-75
receiver#com.google.android.gms.measurement.AppMeasurementReceiver
ADDED from [com.google.firebase:firebase-analytics:11.8.0] /Users/shri/.gradle/caches/transforms-1/files-1.1/firebase-analytics-11.8.0.aar/2b9e801f6be8be137b4669c3bd7eb002/AndroidManifest.xml:28:9-32:20
MERGED from [com.google.firebase:firebase-analytics-impl:11.8.0] /Users/shri/.gradle/caches/transforms-1/files-1.1/firebase-analytics-impl-11.8.0.aar/c71aa951e0b8bdff3321ea7dffb420ee/AndroidManifest.xml:28:9-32:20
MERGED from [com.google.firebase:firebase-analytics-impl:11.8.0] /Users/shri/.gradle/caches/transforms-1/files-1.1/firebase-analytics-impl-11.8.0.aar/c71aa951e0b8bdff3321ea7dffb420ee/AndroidManifest.xml:28:9-32:20
	android:enabled
		ADDED from [com.google.firebase:firebase-analytics:11.8.0] /Users/shri/.gradle/caches/transforms-1/files-1.1/firebase-analytics-11.8.0.aar/2b9e801f6be8be137b4669c3bd7eb002/AndroidManifest.xml:30:13-35
	android:exported
		ADDED from [com.google.firebase:firebase-analytics:11.8.0] /Users/shri/.gradle/caches/transforms-1/files-1.1/firebase-analytics-11.8.0.aar/2b9e801f6be8be137b4669c3bd7eb002/AndroidManifest.xml:31:13-37
	android:name
		ADDED from [com.google.firebase:firebase-analytics:11.8.0] /Users/shri/.gradle/caches/transforms-1/files-1.1/firebase-analytics-11.8.0.aar/2b9e801f6be8be137b4669c3bd7eb002/AndroidManifest.xml:29:13-85
receiver#com.google.android.gms.measurement.AppMeasurementInstallReferrerReceiver
ADDED from [com.google.firebase:firebase-analytics:11.8.0] /Users/shri/.gradle/caches/transforms-1/files-1.1/firebase-analytics-11.8.0.aar/2b9e801f6be8be137b4669c3bd7eb002/AndroidManifest.xml:33:9-41:20
	android:enabled
		ADDED from [com.google.firebase:firebase-analytics:11.8.0] /Users/shri/.gradle/caches/transforms-1/files-1.1/firebase-analytics-11.8.0.aar/2b9e801f6be8be137b4669c3bd7eb002/AndroidManifest.xml:35:13-35
	android:exported
		ADDED from [com.google.firebase:firebase-analytics:11.8.0] /Users/shri/.gradle/caches/transforms-1/files-1.1/firebase-analytics-11.8.0.aar/2b9e801f6be8be137b4669c3bd7eb002/AndroidManifest.xml:36:13-36
	android:permission
		ADDED from [com.google.firebase:firebase-analytics:11.8.0] /Users/shri/.gradle/caches/transforms-1/files-1.1/firebase-analytics-11.8.0.aar/2b9e801f6be8be137b4669c3bd7eb002/AndroidManifest.xml:37:13-69
	android:name
		ADDED from [com.google.firebase:firebase-analytics:11.8.0] /Users/shri/.gradle/caches/transforms-1/files-1.1/firebase-analytics-11.8.0.aar/2b9e801f6be8be137b4669c3bd7eb002/AndroidManifest.xml:34:13-100
service#com.google.android.gms.measurement.AppMeasurementJobService
ADDED from [com.google.firebase:firebase-analytics:11.8.0] /Users/shri/.gradle/caches/transforms-1/files-1.1/firebase-analytics-11.8.0.aar/2b9e801f6be8be137b4669c3bd7eb002/AndroidManifest.xml:47:9-51:72
	android:enabled
		ADDED from [com.google.firebase:firebase-analytics:11.8.0] /Users/shri/.gradle/caches/transforms-1/files-1.1/firebase-analytics-11.8.0.aar/2b9e801f6be8be137b4669c3bd7eb002/AndroidManifest.xml:49:13-35
	android:exported
		ADDED from [com.google.firebase:firebase-analytics:11.8.0] /Users/shri/.gradle/caches/transforms-1/files-1.1/firebase-analytics-11.8.0.aar/2b9e801f6be8be137b4669c3bd7eb002/AndroidManifest.xml:50:13-37
	android:permission
		ADDED from [com.google.firebase:firebase-analytics:11.8.0] /Users/shri/.gradle/caches/transforms-1/files-1.1/firebase-analytics-11.8.0.aar/2b9e801f6be8be137b4669c3bd7eb002/AndroidManifest.xml:51:13-69
	android:name
		ADDED from [com.google.firebase:firebase-analytics:11.8.0] /Users/shri/.gradle/caches/transforms-1/files-1.1/firebase-analytics-11.8.0.aar/2b9e801f6be8be137b4669c3bd7eb002/AndroidManifest.xml:48:13-87
uses-permission#com.google.android.c2dm.permission.RECEIVE
ADDED from [com.google.firebase:firebase-iid:11.8.0] /Users/shri/.gradle/caches/transforms-1/files-1.1/firebase-iid-11.8.0.aar/388e770c7952ee37cb9aded38188d93f/AndroidManifest.xml:26:5-82
	android:name
		ADDED from [com.google.firebase:firebase-iid:11.8.0] /Users/shri/.gradle/caches/transforms-1/files-1.1/firebase-iid-11.8.0.aar/388e770c7952ee37cb9aded38188d93f/AndroidManifest.xml:26:22-79
permission#${applicationId}.permission.C2D_MESSAGE
ADDED from [com.google.firebase:firebase-iid:11.8.0] /Users/shri/.gradle/caches/transforms-1/files-1.1/firebase-iid-11.8.0.aar/388e770c7952ee37cb9aded38188d93f/AndroidManifest.xml:28:5-30:47
	android:protectionLevel
		ADDED from [com.google.firebase:firebase-iid:11.8.0] /Users/shri/.gradle/caches/transforms-1/files-1.1/firebase-iid-11.8.0.aar/388e770c7952ee37cb9aded38188d93f/AndroidManifest.xml:30:9-44
	android:name
		ADDED from [com.google.firebase:firebase-iid:11.8.0] /Users/shri/.gradle/caches/transforms-1/files-1.1/firebase-iid-11.8.0.aar/388e770c7952ee37cb9aded38188d93f/AndroidManifest.xml:29:9-63
permission#com.eightfinite.battery.user.permission.C2D_MESSAGE
ADDED from [com.google.firebase:firebase-iid:11.8.0] /Users/shri/.gradle/caches/transforms-1/files-1.1/firebase-iid-11.8.0.aar/388e770c7952ee37cb9aded38188d93f/AndroidManifest.xml:28:5-30:47
	android:protectionLevel
		ADDED from [com.google.firebase:firebase-iid:11.8.0] /Users/shri/.gradle/caches/transforms-1/files-1.1/firebase-iid-11.8.0.aar/388e770c7952ee37cb9aded38188d93f/AndroidManifest.xml:30:9-44
	android:name
		ADDED from [com.google.firebase:firebase-iid:11.8.0] /Users/shri/.gradle/caches/transforms-1/files-1.1/firebase-iid-11.8.0.aar/388e770c7952ee37cb9aded38188d93f/AndroidManifest.xml:29:9-63
uses-permission#${applicationId}.permission.C2D_MESSAGE
ADDED from [com.google.firebase:firebase-iid:11.8.0] /Users/shri/.gradle/caches/transforms-1/files-1.1/firebase-iid-11.8.0.aar/388e770c7952ee37cb9aded38188d93f/AndroidManifest.xml:32:5-79
	android:name
		ADDED from [com.google.firebase:firebase-iid:11.8.0] /Users/shri/.gradle/caches/transforms-1/files-1.1/firebase-iid-11.8.0.aar/388e770c7952ee37cb9aded38188d93f/AndroidManifest.xml:32:22-76
uses-permission#com.eightfinite.battery.user.permission.C2D_MESSAGE
ADDED from [com.google.firebase:firebase-iid:11.8.0] /Users/shri/.gradle/caches/transforms-1/files-1.1/firebase-iid-11.8.0.aar/388e770c7952ee37cb9aded38188d93f/AndroidManifest.xml:32:5-79
	android:name
		ADDED from [com.google.firebase:firebase-iid:11.8.0] /Users/shri/.gradle/caches/transforms-1/files-1.1/firebase-iid-11.8.0.aar/388e770c7952ee37cb9aded38188d93f/AndroidManifest.xml:32:22-76
receiver#com.google.firebase.iid.FirebaseInstanceIdReceiver
ADDED from [com.google.firebase:firebase-iid:11.8.0] /Users/shri/.gradle/caches/transforms-1/files-1.1/firebase-iid-11.8.0.aar/388e770c7952ee37cb9aded38188d93f/AndroidManifest.xml:35:9-44:20
	android:exported
		ADDED from [com.google.firebase:firebase-iid:11.8.0] /Users/shri/.gradle/caches/transforms-1/files-1.1/firebase-iid-11.8.0.aar/388e770c7952ee37cb9aded38188d93f/AndroidManifest.xml:37:13-36
	android:permission
		ADDED from [com.google.firebase:firebase-iid:11.8.0] /Users/shri/.gradle/caches/transforms-1/files-1.1/firebase-iid-11.8.0.aar/388e770c7952ee37cb9aded38188d93f/AndroidManifest.xml:38:13-73
	android:name
		ADDED from [com.google.firebase:firebase-iid:11.8.0] /Users/shri/.gradle/caches/transforms-1/files-1.1/firebase-iid-11.8.0.aar/388e770c7952ee37cb9aded38188d93f/AndroidManifest.xml:36:13-78
intent-filter#${applicationId}+com.google.android.c2dm.intent.RECEIVE
ADDED from [com.google.firebase:firebase-iid:11.8.0] /Users/shri/.gradle/caches/transforms-1/files-1.1/firebase-iid-11.8.0.aar/388e770c7952ee37cb9aded38188d93f/AndroidManifest.xml:39:13-43:29
intent-filter#com.eightfinite.battery.user+com.google.android.c2dm.intent.RECEIVE
ADDED from [com.google.firebase:firebase-iid:11.8.0] /Users/shri/.gradle/caches/transforms-1/files-1.1/firebase-iid-11.8.0.aar/388e770c7952ee37cb9aded38188d93f/AndroidManifest.xml:39:13-43:29
action#com.google.android.c2dm.intent.RECEIVE
ADDED from [com.google.firebase:firebase-iid:11.8.0] /Users/shri/.gradle/caches/transforms-1/files-1.1/firebase-iid-11.8.0.aar/388e770c7952ee37cb9aded38188d93f/AndroidManifest.xml:40:17-81
	android:name
		ADDED from [com.google.firebase:firebase-iid:11.8.0] /Users/shri/.gradle/caches/transforms-1/files-1.1/firebase-iid-11.8.0.aar/388e770c7952ee37cb9aded38188d93f/AndroidManifest.xml:40:25-78
category#${applicationId}
ADDED from [com.google.firebase:firebase-iid:11.8.0] /Users/shri/.gradle/caches/transforms-1/files-1.1/firebase-iid-11.8.0.aar/388e770c7952ee37cb9aded38188d93f/AndroidManifest.xml:42:17-61
	android:name
		ADDED from [com.google.firebase:firebase-iid:11.8.0] /Users/shri/.gradle/caches/transforms-1/files-1.1/firebase-iid-11.8.0.aar/388e770c7952ee37cb9aded38188d93f/AndroidManifest.xml:42:27-58
category#com.eightfinite.battery.user
ADDED from [com.google.firebase:firebase-iid:11.8.0] /Users/shri/.gradle/caches/transforms-1/files-1.1/firebase-iid-11.8.0.aar/388e770c7952ee37cb9aded38188d93f/AndroidManifest.xml:42:17-61
	android:name
		ADDED from [com.google.firebase:firebase-iid:11.8.0] /Users/shri/.gradle/caches/transforms-1/files-1.1/firebase-iid-11.8.0.aar/388e770c7952ee37cb9aded38188d93f/AndroidManifest.xml:42:27-58
service#com.google.firebase.iid.FirebaseInstanceIdService
ADDED from [com.google.firebase:firebase-iid:11.8.0] /Users/shri/.gradle/caches/transforms-1/files-1.1/firebase-iid-11.8.0.aar/388e770c7952ee37cb9aded38188d93f/AndroidManifest.xml:50:9-56:19
	android:exported
		ADDED from [com.google.firebase:firebase-iid:11.8.0] /Users/shri/.gradle/caches/transforms-1/files-1.1/firebase-iid-11.8.0.aar/388e770c7952ee37cb9aded38188d93f/AndroidManifest.xml:52:13-36
	android:name
		ADDED from [com.google.firebase:firebase-iid:11.8.0] /Users/shri/.gradle/caches/transforms-1/files-1.1/firebase-iid-11.8.0.aar/388e770c7952ee37cb9aded38188d93f/AndroidManifest.xml:51:13-77
provider#com.google.firebase.provider.FirebaseInitProvider
ADDED from [com.google.firebase:firebase-common:11.8.0] /Users/shri/.gradle/caches/transforms-1/files-1.1/firebase-common-11.8.0.aar/9d4a1f0405dff92ae8fe7d614d4a458d/AndroidManifest.xml:8:9-12:39
	android:authorities
		ADDED from [com.google.firebase:firebase-common:11.8.0] /Users/shri/.gradle/caches/transforms-1/files-1.1/firebase-common-11.8.0.aar/9d4a1f0405dff92ae8fe7d614d4a458d/AndroidManifest.xml:10:13-72
	android:exported
		ADDED from [com.google.firebase:firebase-common:11.8.0] /Users/shri/.gradle/caches/transforms-1/files-1.1/firebase-common-11.8.0.aar/9d4a1f0405dff92ae8fe7d614d4a458d/AndroidManifest.xml:11:13-37
	android:initOrder
		ADDED from [com.google.firebase:firebase-common:11.8.0] /Users/shri/.gradle/caches/transforms-1/files-1.1/firebase-common-11.8.0.aar/9d4a1f0405dff92ae8fe7d614d4a458d/AndroidManifest.xml:12:13-36
	android:name
		ADDED from [com.google.firebase:firebase-common:11.8.0] /Users/shri/.gradle/caches/transforms-1/files-1.1/firebase-common-11.8.0.aar/9d4a1f0405dff92ae8fe7d614d4a458d/AndroidManifest.xml:9:13-77
activity#com.google.android.gms.common.api.GoogleApiActivity
ADDED from [com.google.android.gms:play-services-base:11.8.0] /Users/shri/.gradle/caches/transforms-1/files-1.1/play-services-base-11.8.0.aar/fc3a850c00ee598103dc1eadd5a91431/AndroidManifest.xml:23:9-26:75
	android:exported
		ADDED from [com.google.android.gms:play-services-base:11.8.0] /Users/shri/.gradle/caches/transforms-1/files-1.1/play-services-base-11.8.0.aar/fc3a850c00ee598103dc1eadd5a91431/AndroidManifest.xml:25:13-37
	android:theme
		ADDED from [com.google.android.gms:play-services-base:11.8.0] /Users/shri/.gradle/caches/transforms-1/files-1.1/play-services-base-11.8.0.aar/fc3a850c00ee598103dc1eadd5a91431/AndroidManifest.xml:26:13-72
	android:name
		ADDED from [com.google.android.gms:play-services-base:11.8.0] /Users/shri/.gradle/caches/transforms-1/files-1.1/play-services-base-11.8.0.aar/fc3a850c00ee598103dc1eadd5a91431/AndroidManifest.xml:24:13-79
meta-data#com.google.android.gms.version
ADDED from [com.google.android.gms:play-services-basement:11.8.0] /Users/shri/.gradle/caches/transforms-1/files-1.1/play-services-basement-11.8.0.aar/5c87e1bb73fb9bfb3f77328dc39c677d/AndroidManifest.xml:23:9-25:69
	android:value
		ADDED from [com.google.android.gms:play-services-basement:11.8.0] /Users/shri/.gradle/caches/transforms-1/files-1.1/play-services-basement-11.8.0.aar/5c87e1bb73fb9bfb3f77328dc39c677d/AndroidManifest.xml:25:13-66
	android:name
		ADDED from [com.google.android.gms:play-services-basement:11.8.0] /Users/shri/.gradle/caches/transforms-1/files-1.1/play-services-basement-11.8.0.aar/5c87e1bb73fb9bfb3f77328dc39c677d/AndroidManifest.xml:24:13-58
